%!PS-Adobe-3.0 EPSF-3.0
%%Title: All.eps
%%Creator: matplotlib version 3.0.3, http://matplotlib.org/
%%CreationDate: Tue May  7 16:29:51 2019
%%Orientation: portrait
%%BoundingBox: -126 216 738 576
%%EndComments
%%BeginProlog
/mpldict 8 dict def
mpldict begin
/m { moveto } bind def
/l { lineto } bind def
/r { rlineto } bind def
/c { curveto } bind def
/cl { closepath } bind def
/box {
m
1 index 0 r
0 exch r
neg 0 r
cl
} bind def
/clipbox {
box
clip
newpath
} bind def
%!PS-Adobe-3.0 Resource-Font
%%Title: DejaVu Sans
%%Copyright: Copyright (c) 2003 by Bitstream, Inc. All Rights Reserved. Copyright (c) 2006 by Tavmjong Bah. All Rights Reserved. DejaVu changes are in public domain 
%%Creator: Converted from TrueType to type 3 by PPR
25 dict begin
/_d{bind def}bind def
/_m{moveto}_d
/_l{lineto}_d
/_cl{closepath eofill}_d
/_c{curveto}_d
/_sc{7 -1 roll{setcachedevice}{pop pop pop pop pop pop}ifelse}_d
/_e{exec}_d
/FontName /DejaVuSans def
/PaintType 0 def
/FontMatrix[.001 0 0 .001 0 0]def
/FontBBox[-1021 -463 1793 1232]def
/FontType 3 def
/Encoding [ /hyphen /period /zero /one /two /three /four /five /six /seven /eight /nine /A /B /C /L /M /N /U /a /b /c /e /f /h /i /k /n /o /p /r /s /t /y ] def
/FontInfo 10 dict dup begin
/FamilyName (DejaVu Sans) def
/FullName (DejaVu Sans) def
/Notice (Copyright (c) 2003 by Bitstream, Inc. All Rights Reserved. Copyright (c) 2006 by Tavmjong Bah. All Rights Reserved. DejaVu changes are in public domain ) def
/Weight (Book) def
/Version (Version 2.35) def
/ItalicAngle 0.0 def
/isFixedPitch false def
/UnderlinePosition -130 def
/UnderlineThickness 90 def
end readonly def
/CharStrings 35 dict dup begin
/.notdef 0 def
/hyphen{361 0 49 234 312 314 _sc
49 314 _m
312 314 _l
312 234 _l
49 234 _l
49 314 _l
_cl}_d
/period{318 0 107 0 210 124 _sc
107 124 _m
210 124 _l
210 0 _l
107 0 _l
107 124 _l
_cl}_d
/zero{636 0 66 -13 570 742 _sc
318 664 _m
267 664 229 639 203 589 _c
177 539 165 464 165 364 _c
165 264 177 189 203 139 _c
229 89 267 64 318 64 _c
369 64 407 89 433 139 _c
458 189 471 264 471 364 _c
471 464 458 539 433 589 _c
407 639 369 664 318 664 _c
318 742 _m
399 742 461 709 505 645 _c
548 580 570 486 570 364 _c
570 241 548 147 505 83 _c
461 19 399 -13 318 -13 _c
236 -13 173 19 130 83 _c
87 147 66 241 66 364 _c
66 486 87 580 130 645 _c
173 709 236 742 318 742 _c
_cl}_d
/one{636 0 110 0 544 729 _sc
124 83 _m
285 83 _l
285 639 _l
110 604 _l
110 694 _l
284 729 _l
383 729 _l
383 83 _l
544 83 _l
544 0 _l
124 0 _l
124 83 _l
_cl}_d
/two{{636 0 73 0 536 742 _sc
192 83 _m
536 83 _l
536 0 _l
73 0 _l
73 83 _l
110 121 161 173 226 239 _c
290 304 331 346 348 365 _c
380 400 402 430 414 455 _c
426 479 433 504 433 528 _c
433 566 419 598 392 622 _c
365 646 330 659 286 659 _c
255 659 222 653 188 643 _c
154 632 117 616 78 594 _c
78 694 _l
118 710 155 722 189 730 _c
223 738 255 742 284 742 _c
}_e{359 742 419 723 464 685 _c
509 647 532 597 532 534 _c
532 504 526 475 515 449 _c
504 422 484 390 454 354 _c
446 344 420 317 376 272 _c
332 227 271 164 192 83 _c
_cl}_e}_d
/three{{636 0 76 -13 556 742 _sc
406 393 _m
453 383 490 362 516 330 _c
542 298 556 258 556 212 _c
556 140 531 84 482 45 _c
432 6 362 -13 271 -13 _c
240 -13 208 -10 176 -4 _c
144 1 110 10 76 22 _c
76 117 _l
103 101 133 89 166 81 _c
198 73 232 69 268 69 _c
330 69 377 81 409 105 _c
441 129 458 165 458 212 _c
458 254 443 288 413 312 _c
383 336 341 349 287 349 _c
}_e{202 349 _l
202 430 _l
291 430 _l
339 430 376 439 402 459 _c
428 478 441 506 441 543 _c
441 580 427 609 401 629 _c
374 649 336 659 287 659 _c
260 659 231 656 200 650 _c
169 644 135 635 98 623 _c
98 711 _l
135 721 170 729 203 734 _c
235 739 266 742 296 742 _c
370 742 429 725 473 691 _c
517 657 539 611 539 553 _c
539 513 527 479 504 451 _c
481 423 448 403 406 393 _c
_cl}_e}_d
/four{636 0 49 0 580 729 _sc
378 643 _m
129 254 _l
378 254 _l
378 643 _l
352 729 _m
476 729 _l
476 254 _l
580 254 _l
580 172 _l
476 172 _l
476 0 _l
378 0 _l
378 172 _l
49 172 _l
49 267 _l
352 729 _l
_cl}_d
/five{{636 0 77 -13 549 729 _sc
108 729 _m
495 729 _l
495 646 _l
198 646 _l
198 467 _l
212 472 227 476 241 478 _c
255 480 270 482 284 482 _c
365 482 429 459 477 415 _c
525 370 549 310 549 234 _c
549 155 524 94 475 51 _c
426 8 357 -13 269 -13 _c
238 -13 207 -10 175 -6 _c
143 -1 111 6 77 17 _c
77 116 _l
106 100 136 88 168 80 _c
199 72 232 69 267 69 _c
}_e{323 69 368 83 401 113 _c
433 143 450 183 450 234 _c
450 284 433 324 401 354 _c
368 384 323 399 267 399 _c
241 399 214 396 188 390 _c
162 384 135 375 108 363 _c
108 729 _l
_cl}_e}_d
/six{{636 0 70 -13 573 742 _sc
330 404 _m
286 404 251 388 225 358 _c
199 328 186 286 186 234 _c
186 181 199 139 225 109 _c
251 79 286 64 330 64 _c
374 64 409 79 435 109 _c
461 139 474 181 474 234 _c
474 286 461 328 435 358 _c
409 388 374 404 330 404 _c
526 713 _m
526 623 _l
501 635 476 644 451 650 _c
425 656 400 659 376 659 _c
310 659 260 637 226 593 _c
}_e{192 549 172 482 168 394 _c
187 422 211 444 240 459 _c
269 474 301 482 336 482 _c
409 482 467 459 509 415 _c
551 371 573 310 573 234 _c
573 159 550 99 506 54 _c
462 9 403 -13 330 -13 _c
246 -13 181 19 137 83 _c
92 147 70 241 70 364 _c
70 479 97 571 152 639 _c
206 707 280 742 372 742 _c
396 742 421 739 447 735 _c
472 730 498 723 526 713 _c
_cl}_e}_d
/seven{636 0 82 0 551 729 _sc
82 729 _m
551 729 _l
551 687 _l
286 0 _l
183 0 _l
432 646 _l
82 646 _l
82 729 _l
_cl}_d
/eight{{636 0 68 -13 568 742 _sc
318 346 _m
271 346 234 333 207 308 _c
180 283 167 249 167 205 _c
167 161 180 126 207 101 _c
234 76 271 64 318 64 _c
364 64 401 76 428 102 _c
455 127 469 161 469 205 _c
469 249 455 283 429 308 _c
402 333 365 346 318 346 _c
219 388 _m
177 398 144 418 120 447 _c
96 476 85 511 85 553 _c
85 611 105 657 147 691 _c
188 725 245 742 318 742 _c
}_e{390 742 447 725 489 691 _c
530 657 551 611 551 553 _c
551 511 539 476 515 447 _c
491 418 459 398 417 388 _c
464 377 501 355 528 323 _c
554 291 568 251 568 205 _c
568 134 546 80 503 43 _c
459 5 398 -13 318 -13 _c
237 -13 175 5 132 43 _c
89 80 68 134 68 205 _c
68 251 81 291 108 323 _c
134 355 171 377 219 388 _c
183 544 _m
183 506 194 476 218 455 _c
}_e{242 434 275 424 318 424 _c
360 424 393 434 417 455 _c
441 476 453 506 453 544 _c
453 582 441 611 417 632 _c
393 653 360 664 318 664 _c
275 664 242 653 218 632 _c
194 611 183 582 183 544 _c
_cl}_e}_d
/nine{{636 0 63 -13 566 742 _sc
110 15 _m
110 105 _l
134 93 159 84 185 78 _c
210 72 235 69 260 69 _c
324 69 374 90 408 134 _c
442 178 462 244 468 334 _c
448 306 424 284 396 269 _c
367 254 335 247 300 247 _c
226 247 168 269 126 313 _c
84 357 63 417 63 494 _c
63 568 85 628 129 674 _c
173 719 232 742 306 742 _c
390 742 455 709 499 645 _c
543 580 566 486 566 364 _c
}_e{566 248 538 157 484 89 _c
429 21 356 -13 264 -13 _c
239 -13 214 -10 189 -6 _c
163 -2 137 5 110 15 _c
306 324 _m
350 324 385 339 411 369 _c
437 399 450 441 450 494 _c
450 546 437 588 411 618 _c
385 648 350 664 306 664 _c
262 664 227 648 201 618 _c
175 588 162 546 162 494 _c
162 441 175 399 201 369 _c
227 339 262 324 306 324 _c
_cl}_e}_d
/A{684 0 8 0 676 729 _sc
342 632 _m
208 269 _l
476 269 _l
342 632 _l
286 729 _m
398 729 _l
676 0 _l
573 0 _l
507 187 _l
178 187 _l
112 0 _l
8 0 _l
286 729 _l
_cl}_d
/B{{686 0 98 0 615 729 _sc
197 348 _m
197 81 _l
355 81 _l
408 81 447 92 473 114 _c
498 136 511 169 511 215 _c
511 260 498 293 473 315 _c
447 337 408 348 355 348 _c
197 348 _l
197 648 _m
197 428 _l
343 428 _l
391 428 426 437 450 455 _c
474 473 486 500 486 538 _c
486 574 474 602 450 620 _c
426 638 391 648 343 648 _c
197 648 _l
98 729 _m
350 729 _l
}_e{425 729 483 713 524 682 _c
564 650 585 606 585 549 _c
585 504 574 468 553 442 _c
532 416 502 399 462 393 _c
510 382 548 360 575 327 _c
601 294 615 253 615 204 _c
615 138 592 88 548 53 _c
504 17 441 0 360 0 _c
98 0 _l
98 729 _l
_cl}_e}_d
/C{{698 0 56 -13 644 742 _sc
644 673 _m
644 569 _l
610 599 575 622 537 638 _c
499 653 460 661 418 661 _c
334 661 270 635 226 584 _c
182 533 160 460 160 364 _c
160 268 182 194 226 143 _c
270 92 334 67 418 67 _c
460 67 499 74 537 90 _c
575 105 610 128 644 159 _c
644 56 _l
609 32 572 15 534 4 _c
496 -7 455 -13 412 -13 _c
302 -13 215 20 151 87 _c
}_e{87 154 56 246 56 364 _c
56 481 87 573 151 641 _c
215 708 302 742 412 742 _c
456 742 497 736 535 725 _c
573 713 610 696 644 673 _c
_cl}_e}_d
/L{557 0 98 0 552 729 _sc
98 729 _m
197 729 _l
197 83 _l
552 83 _l
552 0 _l
98 0 _l
98 729 _l
_cl}_d
/M{863 0 98 0 765 729 _sc
98 729 _m
245 729 _l
431 233 _l
618 729 _l
765 729 _l
765 0 _l
669 0 _l
669 640 _l
481 140 _l
382 140 _l
194 640 _l
194 0 _l
98 0 _l
98 729 _l
_cl}_d
/N{748 0 98 0 650 729 _sc
98 729 _m
231 729 _l
554 119 _l
554 729 _l
650 729 _l
650 0 _l
517 0 _l
194 610 _l
194 0 _l
98 0 _l
98 729 _l
_cl}_d
/U{732 0 87 -13 645 729 _sc
87 729 _m
186 729 _l
186 286 _l
186 208 200 151 228 117 _c
256 83 302 66 366 66 _c
429 66 475 83 503 117 _c
531 151 546 208 546 286 _c
546 729 _l
645 729 _l
645 274 _l
645 178 621 107 574 59 _c
527 11 458 -13 366 -13 _c
274 -13 204 11 157 59 _c
110 107 87 178 87 274 _c
87 729 _l
_cl}_d
/a{{613 0 60 -13 522 560 _sc
343 275 _m
270 275 220 266 192 250 _c
164 233 150 205 150 165 _c
150 133 160 107 181 89 _c
202 70 231 61 267 61 _c
317 61 357 78 387 114 _c
417 149 432 196 432 255 _c
432 275 _l
343 275 _l
522 312 _m
522 0 _l
432 0 _l
432 83 _l
411 49 385 25 355 10 _c
325 -5 287 -13 243 -13 _c
187 -13 142 2 109 33 _c
76 64 60 106 60 159 _c
}_e{60 220 80 266 122 298 _c
163 329 224 345 306 345 _c
432 345 _l
432 354 _l
432 395 418 427 391 450 _c
364 472 326 484 277 484 _c
245 484 215 480 185 472 _c
155 464 127 453 100 439 _c
100 522 _l
132 534 164 544 195 550 _c
226 556 256 560 286 560 _c
365 560 424 539 463 498 _c
502 457 522 395 522 312 _c
_cl}_e}_d
/b{{635 0 91 -13 580 760 _sc
487 273 _m
487 339 473 390 446 428 _c
418 466 381 485 334 485 _c
286 485 249 466 222 428 _c
194 390 181 339 181 273 _c
181 207 194 155 222 117 _c
249 79 286 61 334 61 _c
381 61 418 79 446 117 _c
473 155 487 207 487 273 _c
181 464 _m
199 496 223 520 252 536 _c
281 552 316 560 356 560 _c
422 560 476 533 518 481 _c
559 428 580 359 580 273 _c
}_e{580 187 559 117 518 65 _c
476 13 422 -13 356 -13 _c
316 -13 281 -5 252 10 _c
223 25 199 49 181 82 _c
181 0 _l
91 0 _l
91 760 _l
181 760 _l
181 464 _l
_cl}_e}_d
/c{{550 0 55 -13 488 560 _sc
488 526 _m
488 442 _l
462 456 437 466 411 473 _c
385 480 360 484 334 484 _c
276 484 230 465 198 428 _c
166 391 150 339 150 273 _c
150 206 166 154 198 117 _c
230 80 276 62 334 62 _c
360 62 385 65 411 72 _c
437 79 462 90 488 104 _c
488 21 _l
462 9 436 0 410 -5 _c
383 -10 354 -13 324 -13 _c
242 -13 176 12 128 64 _c
}_e{79 115 55 185 55 273 _c
55 362 79 432 128 483 _c
177 534 244 560 330 560 _c
358 560 385 557 411 551 _c
437 545 463 537 488 526 _c
_cl}_e}_d
/e{{615 0 55 -13 562 560 _sc
562 296 _m
562 252 _l
149 252 _l
153 190 171 142 205 110 _c
238 78 284 62 344 62 _c
378 62 412 66 444 74 _c
476 82 509 95 541 113 _c
541 28 _l
509 14 476 3 442 -3 _c
408 -9 373 -13 339 -13 _c
251 -13 182 12 131 62 _c
80 112 55 181 55 268 _c
55 357 79 428 127 481 _c
175 533 241 560 323 560 _c
397 560 455 536 498 489 _c
}_e{540 441 562 377 562 296 _c
472 322 _m
471 371 457 410 431 440 _c
404 469 368 484 324 484 _c
274 484 234 469 204 441 _c
174 413 156 373 152 322 _c
472 322 _l
_cl}_e}_d
/f{352 0 23 0 371 760 _sc
371 760 _m
371 685 _l
285 685 _l
253 685 230 678 218 665 _c
205 652 199 629 199 595 _c
199 547 _l
347 547 _l
347 477 _l
199 477 _l
199 0 _l
109 0 _l
109 477 _l
23 477 _l
23 547 _l
109 547 _l
109 585 _l
109 645 123 690 151 718 _c
179 746 224 760 286 760 _c
371 760 _l
_cl}_d
/h{634 0 91 0 549 760 _sc
549 330 _m
549 0 _l
459 0 _l
459 327 _l
459 379 448 417 428 443 _c
408 469 378 482 338 482 _c
289 482 251 466 223 435 _c
195 404 181 362 181 309 _c
181 0 _l
91 0 _l
91 760 _l
181 760 _l
181 462 _l
202 494 227 519 257 535 _c
286 551 320 560 358 560 _c
420 560 468 540 500 501 _c
532 462 549 405 549 330 _c
_cl}_d
/i{278 0 94 0 184 760 _sc
94 547 _m
184 547 _l
184 0 _l
94 0 _l
94 547 _l
94 760 _m
184 760 _l
184 646 _l
94 646 _l
94 760 _l
_cl}_d
/k{579 0 91 0 576 760 _sc
91 760 _m
181 760 _l
181 311 _l
449 547 _l
564 547 _l
274 291 _l
576 0 _l
459 0 _l
181 267 _l
181 0 _l
91 0 _l
91 760 _l
_cl}_d
/n{634 0 91 0 549 560 _sc
549 330 _m
549 0 _l
459 0 _l
459 327 _l
459 379 448 417 428 443 _c
408 469 378 482 338 482 _c
289 482 251 466 223 435 _c
195 404 181 362 181 309 _c
181 0 _l
91 0 _l
91 547 _l
181 547 _l
181 462 _l
202 494 227 519 257 535 _c
286 551 320 560 358 560 _c
420 560 468 540 500 501 _c
532 462 549 405 549 330 _c
_cl}_d
/o{612 0 55 -13 557 560 _sc
306 484 _m
258 484 220 465 192 427 _c
164 389 150 338 150 273 _c
150 207 163 156 191 118 _c
219 80 257 62 306 62 _c
354 62 392 80 420 118 _c
448 156 462 207 462 273 _c
462 337 448 389 420 427 _c
392 465 354 484 306 484 _c
306 560 _m
384 560 445 534 490 484 _c
534 433 557 363 557 273 _c
557 183 534 113 490 63 _c
445 12 384 -13 306 -13 _c
227 -13 165 12 121 63 _c
77 113 55 183 55 273 _c
55 363 77 433 121 484 _c
165 534 227 560 306 560 _c
_cl}_d
/p{{635 0 91 -207 580 560 _sc
181 82 _m
181 -207 _l
91 -207 _l
91 547 _l
181 547 _l
181 464 _l
199 496 223 520 252 536 _c
281 552 316 560 356 560 _c
422 560 476 533 518 481 _c
559 428 580 359 580 273 _c
580 187 559 117 518 65 _c
476 13 422 -13 356 -13 _c
316 -13 281 -5 252 10 _c
223 25 199 49 181 82 _c
487 273 _m
487 339 473 390 446 428 _c
418 466 381 485 334 485 _c
}_e{286 485 249 466 222 428 _c
194 390 181 339 181 273 _c
181 207 194 155 222 117 _c
249 79 286 61 334 61 _c
381 61 418 79 446 117 _c
473 155 487 207 487 273 _c
_cl}_e}_d
/r{411 0 91 0 411 560 _sc
411 463 _m
401 469 390 473 378 476 _c
366 478 353 480 339 480 _c
288 480 249 463 222 430 _c
194 397 181 350 181 288 _c
181 0 _l
91 0 _l
91 547 _l
181 547 _l
181 462 _l
199 495 224 520 254 536 _c
284 552 321 560 365 560 _c
371 560 378 559 386 559 _c
393 558 401 557 411 555 _c
411 463 _l
_cl}_d
/s{{521 0 54 -13 472 560 _sc
443 531 _m
443 446 _l
417 458 391 468 364 475 _c
336 481 308 485 279 485 _c
234 485 200 478 178 464 _c
156 450 145 430 145 403 _c
145 382 153 366 169 354 _c
185 342 217 330 265 320 _c
296 313 _l
360 299 405 279 432 255 _c
458 230 472 195 472 151 _c
472 100 452 60 412 31 _c
372 1 316 -13 246 -13 _c
216 -13 186 -10 154 -5 _c
}_e{122 0 89 8 54 20 _c
54 113 _l
87 95 120 82 152 74 _c
184 65 216 61 248 61 _c
290 61 323 68 346 82 _c
368 96 380 117 380 144 _c
380 168 371 187 355 200 _c
339 213 303 226 247 238 _c
216 245 _l
160 257 119 275 95 299 _c
70 323 58 356 58 399 _c
58 450 76 490 112 518 _c
148 546 200 560 268 560 _c
301 560 332 557 362 552 _c
391 547 418 540 443 531 _c
}_e{_cl}_e}_d
/t{392 0 27 0 368 702 _sc
183 702 _m
183 547 _l
368 547 _l
368 477 _l
183 477 _l
183 180 _l
183 135 189 106 201 94 _c
213 81 238 75 276 75 _c
368 75 _l
368 0 _l
276 0 _l
206 0 158 13 132 39 _c
106 65 93 112 93 180 _c
93 477 _l
27 477 _l
27 547 _l
93 547 _l
93 702 _l
183 702 _l
_cl}_d
/y{592 0 30 -207 562 547 _sc
322 -50 _m
296 -114 271 -157 247 -177 _c
223 -197 191 -207 151 -207 _c
79 -207 _l
79 -132 _l
132 -132 _l
156 -132 175 -126 189 -114 _c
203 -102 218 -75 235 -31 _c
251 9 _l
30 547 _l
125 547 _l
296 119 _l
467 547 _l
562 547 _l
322 -50 _l
_cl}_d
end readonly def

/BuildGlyph
 {exch begin
 CharStrings exch
 2 copy known not{pop /.notdef}if
 true 3 1 roll get exec
 end}_d

/BuildChar {
 1 index /Encoding get exch get
 1 index /BuildGlyph get exec
}_d

FontName currentdict end definefont pop
end
%%EndProlog
mpldict begin
-126 216 translate
864 360 0 0 clipbox
gsave
0 0 m
864 0 l
864 360 l
0 360 l
cl
1.000 setgray
fill
grestore
gsave
54.02 215.90471 m
239.651248 215.90471 l
239.651248 345.369421 l
54.02 345.369421 l
cl
1.000 setgray
fill
grestore
0.800 setlinewidth
1 setlinejoin
0 setlinecap
[] 0 setdash
0.000 setgray
gsave
/o {
gsave
newpath
translate
0.8 setlinewidth
1 setlinejoin
0 setlinecap
0 0 m
0 -3.5 l

gsave
0.000 setgray
fill
grestore
stroke
grestore
} bind def
62.4578 215.905 o
grestore
/DejaVuSans findfont
10.000 scalefont
setfont
gsave
52.918721 201.310960 translate
0.000000 rotate
0.000000 0.000000 m /one glyphshow
6.362305 0.000000 m /zero glyphshow
12.724609 0.000000 m /zero glyphshow
grestore
gsave
/o {
gsave
newpath
translate
0.8 setlinewidth
1 setlinejoin
0 setlinecap
0 0 m
0 -3.5 l

gsave
0.000 setgray
fill
grestore
stroke
grestore
} bind def
104.647 215.905 o
grestore
gsave
95.107641 201.310960 translate
0.000000 rotate
0.000000 0.000000 m /five glyphshow
6.362305 0.000000 m /zero glyphshow
12.724609 0.000000 m /zero glyphshow
grestore
gsave
/o {
gsave
newpath
translate
0.8 setlinewidth
1 setlinejoin
0 setlinecap
0 0 m
0 -3.5 l

gsave
0.000 setgray
fill
grestore
stroke
grestore
} bind def
146.836 215.905 o
grestore
gsave
134.116874 201.310960 translate
0.000000 rotate
0.000000 0.000000 m /one glyphshow
6.362305 0.000000 m /zero glyphshow
12.724609 0.000000 m /zero glyphshow
19.086914 0.000000 m /zero glyphshow
grestore
gsave
/o {
gsave
newpath
translate
0.8 setlinewidth
1 setlinejoin
0 setlinecap
0 0 m
0 -3.5 l

gsave
0.000 setgray
fill
grestore
stroke
grestore
} bind def
189.025 215.905 o
grestore
gsave
173.126106 201.310960 translate
0.000000 rotate
0.000000 0.000000 m /one glyphshow
6.362305 0.000000 m /zero glyphshow
12.724609 0.000000 m /zero glyphshow
19.086914 0.000000 m /zero glyphshow
25.449219 0.000000 m /zero glyphshow
grestore
gsave
/o {
gsave
newpath
translate
0.8 setlinewidth
1 setlinejoin
0 setlinecap
0 0 m
0 -3.5 l

gsave
0.000 setgray
fill
grestore
stroke
grestore
} bind def
231.213 215.905 o
grestore
gsave
215.315026 201.310960 translate
0.000000 rotate
0.000000 0.000000 m /five glyphshow
6.362305 0.000000 m /zero glyphshow
12.724609 0.000000 m /zero glyphshow
19.086914 0.000000 m /zero glyphshow
25.449219 0.000000 m /zero glyphshow
grestore
gsave
143.093436 187.639085 translate
0.000000 rotate
0.000000 0.000000 m /N glyphshow
grestore
gsave
/o {
gsave
newpath
translate
0.8 setlinewidth
1 setlinejoin
0 setlinecap
0 0 m
-3.5 0 l

gsave
0.000 setgray
fill
grestore
stroke
grestore
} bind def
54.02 243.805 o
grestore
gsave
24.754375 240.007741 translate
0.000000 rotate
0.000000 0.000000 m /zero glyphshow
6.362305 0.000000 m /period glyphshow
9.541016 0.000000 m /eight glyphshow
15.903320 0.000000 m /zero glyphshow
grestore
gsave
/o {
gsave
newpath
translate
0.8 setlinewidth
1 setlinejoin
0 setlinecap
0 0 m
-3.5 0 l

gsave
0.000 setgray
fill
grestore
stroke
grestore
} bind def
54.02 277.615 o
grestore
gsave
24.754375 273.818350 translate
0.000000 rotate
0.000000 0.000000 m /zero glyphshow
6.362305 0.000000 m /period glyphshow
9.541016 0.000000 m /eight glyphshow
15.903320 0.000000 m /five glyphshow
grestore
gsave
/o {
gsave
newpath
translate
0.8 setlinewidth
1 setlinejoin
0 setlinecap
0 0 m
-3.5 0 l

gsave
0.000 setgray
fill
grestore
stroke
grestore
} bind def
54.02 311.426 o
grestore
gsave
24.754375 307.628958 translate
0.000000 rotate
0.000000 0.000000 m /zero glyphshow
6.362305 0.000000 m /period glyphshow
9.541016 0.000000 m /nine glyphshow
15.903320 0.000000 m /zero glyphshow
grestore
gsave
/o {
gsave
newpath
translate
0.8 setlinewidth
1 setlinejoin
0 setlinecap
0 0 m
-3.5 0 l

gsave
0.000 setgray
fill
grestore
stroke
grestore
} bind def
54.02 345.236 o
grestore
gsave
24.754375 341.439566 translate
0.000000 rotate
0.000000 0.000000 m /zero glyphshow
6.362305 0.000000 m /period glyphshow
9.541016 0.000000 m /nine glyphshow
15.903320 0.000000 m /five glyphshow
grestore
gsave
18.676250 270.058940 translate
90.000000 rotate
0.000000 0.000000 m /A glyphshow
6.840820 0.000000 m /U glyphshow
14.160156 0.000000 m /C glyphshow
grestore
1.500 setlinewidth
2 setlinecap
0.122 0.467 0.706 setrgbcolor
gsave
185.6 129.5 54.02 215.9 clipbox
62.457784 221.78947 m
104.646704 232.795676 l
146.835624 240.053622 l
189.024544 238.927939 l
231.213464 239.255684 l
stroke
grestore
1.000 setlinewidth
0 setlinecap
gsave
185.6 129.5 54.02 215.9 clipbox
/o {
gsave
newpath
translate
1.0 setlinewidth
1 setlinejoin
0 setlinecap
0 -3 m
0.795609 -3 1.55874 -2.683901 2.12132 -2.12132 c
2.683901 -1.55874 3 -0.795609 3 0 c
3 0.795609 2.683901 1.55874 2.12132 2.12132 c
1.55874 2.683901 0.795609 3 0 3 c
-0.795609 3 -1.55874 2.683901 -2.12132 2.12132 c
-2.683901 1.55874 -3 0.795609 -3 0 c
-3 -0.795609 -2.683901 -1.55874 -2.12132 -2.12132 c
-1.55874 -2.683901 -0.795609 -3 0 -3 c
cl

gsave
0.122 0.467 0.706 setrgbcolor
fill
grestore
stroke
grestore
} bind def
62.4578 221.789 o
104.647 232.796 o
146.836 240.054 o
189.025 238.928 o
231.213 239.256 o
grestore
1.500 setlinewidth
2 setlinecap
1.000 0.498 0.055 setrgbcolor
gsave
185.6 129.5 54.02 215.9 clipbox
62.457784 338.585506 m
104.646704 331.706614 l
146.835624 337.290824 l
189.024544 339.484661 l
231.213464 339.170928 l
stroke
grestore
1.000 setlinewidth
0 setlinecap
gsave
185.6 129.5 54.02 215.9 clipbox
/o {
gsave
newpath
translate
1.0 setlinewidth
1 setlinejoin
0 setlinecap
0 -3 m
0.795609 -3 1.55874 -2.683901 2.12132 -2.12132 c
2.683901 -1.55874 3 -0.795609 3 0 c
3 0.795609 2.683901 1.55874 2.12132 2.12132 c
1.55874 2.683901 0.795609 3 0 3 c
-0.795609 3 -1.55874 2.683901 -2.12132 2.12132 c
-2.683901 1.55874 -3 0.795609 -3 0 c
-3 -0.795609 -2.683901 -1.55874 -2.12132 -2.12132 c
-1.55874 -2.683901 -0.795609 -3 0 -3 c
cl

gsave
1.000 0.498 0.055 setrgbcolor
fill
grestore
stroke
grestore
} bind def
62.4578 338.586 o
104.647 331.707 o
146.836 337.291 o
189.025 339.485 o
231.213 339.171 o
grestore
1.500 setlinewidth
2 setlinecap
0.173 0.627 0.173 setrgbcolor
gsave
185.6 129.5 54.02 215.9 clipbox
62.457784 321.177814 m
104.646704 324.712301 l
146.835624 322.298434 l
189.024544 324.677072 l
231.213464 323.487284 l
stroke
grestore
1.000 setlinewidth
0 setlinecap
gsave
185.6 129.5 54.02 215.9 clipbox
/o {
gsave
newpath
translate
1.0 setlinewidth
1 setlinejoin
0 setlinecap
0 -3 m
0.795609 -3 1.55874 -2.683901 2.12132 -2.12132 c
2.683901 -1.55874 3 -0.795609 3 0 c
3 0.795609 2.683901 1.55874 2.12132 2.12132 c
1.55874 2.683901 0.795609 3 0 3 c
-0.795609 3 -1.55874 2.683901 -2.12132 2.12132 c
-2.683901 1.55874 -3 0.795609 -3 0 c
-3 -0.795609 -2.683901 -1.55874 -2.12132 -2.12132 c
-1.55874 -2.683901 -0.795609 -3 0 -3 c
cl

gsave
0.173 0.627 0.173 setrgbcolor
fill
grestore
stroke
grestore
} bind def
62.4578 321.178 o
104.647 324.712 o
146.836 322.298 o
189.025 324.677 o
231.213 323.487 o
grestore
1.500 setlinewidth
2 setlinecap
0.839 0.153 0.157 setrgbcolor
gsave
185.6 129.5 54.02 215.9 clipbox
62.457784 316.737024 m
104.646704 322.120582 l
146.835624 324.183885 l
189.024544 329.310801 l
231.213464 330.696761 l
stroke
grestore
1.000 setlinewidth
0 setlinecap
gsave
185.6 129.5 54.02 215.9 clipbox
/o {
gsave
newpath
translate
1.0 setlinewidth
1 setlinejoin
0 setlinecap
0 -3 m
0.795609 -3 1.55874 -2.683901 2.12132 -2.12132 c
2.683901 -1.55874 3 -0.795609 3 0 c
3 0.795609 2.683901 1.55874 2.12132 2.12132 c
1.55874 2.683901 0.795609 3 0 3 c
-0.795609 3 -1.55874 2.683901 -2.12132 2.12132 c
-2.683901 1.55874 -3 0.795609 -3 0 c
-3 -0.795609 -2.683901 -1.55874 -2.12132 -2.12132 c
-1.55874 -2.683901 -0.795609 -3 0 -3 c
cl

gsave
0.839 0.153 0.157 setrgbcolor
fill
grestore
stroke
grestore
} bind def
62.4578 316.737 o
104.647 322.121 o
146.836 324.184 o
189.025 329.311 o
231.213 330.697 o
grestore
1.500 setlinewidth
[5.55 2.4] 0 setdash
0.580 0.404 0.741 setrgbcolor
gsave
185.6 129.5 54.02 215.9 clipbox
62.457784 240.704184 m
104.646704 240.704184 l
146.835624 240.704184 l
189.024544 240.704184 l
231.213464 240.704184 l
stroke
grestore
0.549 0.337 0.294 setrgbcolor
gsave
185.6 129.5 54.02 215.9 clipbox
62.457784 282.458932 m
104.646704 282.458932 l
146.835624 282.458932 l
189.024544 282.458932 l
231.213464 282.458932 l
stroke
grestore
0.890 0.467 0.761 setrgbcolor
gsave
185.6 129.5 54.02 215.9 clipbox
62.457784 304.404046 m
104.646704 304.404046 l
146.835624 304.404046 l
189.024544 304.404046 l
231.213464 304.404046 l
stroke
grestore
0.498 setgray
gsave
185.6 129.5 54.02 215.9 clipbox
62.457784 324.169727 m
104.646704 324.169727 l
146.835624 324.169727 l
189.024544 324.169727 l
231.213464 324.169727 l
stroke
grestore
0.800 setlinewidth
0 setlinejoin
2 setlinecap
[] 0 setdash
0.000 setgray
gsave
54.02 215.90471 m
54.02 345.369421 l
stroke
grestore
gsave
239.651248 215.90471 m
239.651248 345.369421 l
stroke
grestore
gsave
54.02 215.90471 m
239.651248 215.90471 l
stroke
grestore
gsave
54.02 345.369421 m
239.651248 345.369421 l
stroke
grestore
gsave
54.02 41.96 m
239.651248 41.96 l
239.651248 171.42471 l
54.02 171.42471 l
cl
1.000 setgray
fill
grestore
1 setlinejoin
0 setlinecap
[] 0 setdash
gsave
/o {
gsave
newpath
translate
0.8 setlinewidth
1 setlinejoin
0 setlinecap
0 0 m
0 -3.5 l

gsave
0.000 setgray
fill
grestore
stroke
grestore
} bind def
62.4578 41.96 o
grestore
gsave
52.918721 27.366250 translate
0.000000 rotate
0.000000 0.000000 m /one glyphshow
6.362305 0.000000 m /zero glyphshow
12.724609 0.000000 m /zero glyphshow
grestore
gsave
/o {
gsave
newpath
translate
0.8 setlinewidth
1 setlinejoin
0 setlinecap
0 0 m
0 -3.5 l

gsave
0.000 setgray
fill
grestore
stroke
grestore
} bind def
104.647 41.96 o
grestore
gsave
95.107641 27.366250 translate
0.000000 rotate
0.000000 0.000000 m /five glyphshow
6.362305 0.000000 m /zero glyphshow
12.724609 0.000000 m /zero glyphshow
grestore
gsave
/o {
gsave
newpath
translate
0.8 setlinewidth
1 setlinejoin
0 setlinecap
0 0 m
0 -3.5 l

gsave
0.000 setgray
fill
grestore
stroke
grestore
} bind def
146.836 41.96 o
grestore
gsave
134.116874 27.366250 translate
0.000000 rotate
0.000000 0.000000 m /one glyphshow
6.362305 0.000000 m /zero glyphshow
12.724609 0.000000 m /zero glyphshow
19.086914 0.000000 m /zero glyphshow
grestore
gsave
/o {
gsave
newpath
translate
0.8 setlinewidth
1 setlinejoin
0 setlinecap
0 0 m
0 -3.5 l

gsave
0.000 setgray
fill
grestore
stroke
grestore
} bind def
189.025 41.96 o
grestore
gsave
173.126106 27.366250 translate
0.000000 rotate
0.000000 0.000000 m /one glyphshow
6.362305 0.000000 m /zero glyphshow
12.724609 0.000000 m /zero glyphshow
19.086914 0.000000 m /zero glyphshow
25.449219 0.000000 m /zero glyphshow
grestore
gsave
/o {
gsave
newpath
translate
0.8 setlinewidth
1 setlinejoin
0 setlinecap
0 0 m
0 -3.5 l

gsave
0.000 setgray
fill
grestore
stroke
grestore
} bind def
231.213 41.96 o
grestore
gsave
215.315026 27.366250 translate
0.000000 rotate
0.000000 0.000000 m /five glyphshow
6.362305 0.000000 m /zero glyphshow
12.724609 0.000000 m /zero glyphshow
19.086914 0.000000 m /zero glyphshow
25.449219 0.000000 m /zero glyphshow
grestore
gsave
143.093436 13.694375 translate
0.000000 rotate
0.000000 0.000000 m /N glyphshow
grestore
gsave
/o {
gsave
newpath
translate
0.8 setlinewidth
1 setlinejoin
0 setlinecap
0 0 m
-3.5 0 l

gsave
0.000 setgray
fill
grestore
stroke
grestore
} bind def
54.02 45.2191 o
grestore
gsave
31.113750 41.422273 translate
0.000000 rotate
0.000000 0.000000 m /zero glyphshow
6.362305 0.000000 m /period glyphshow
9.541016 0.000000 m /three glyphshow
grestore
gsave
/o {
gsave
newpath
translate
0.8 setlinewidth
1 setlinejoin
0 setlinecap
0 0 m
-3.5 0 l

gsave
0.000 setgray
fill
grestore
stroke
grestore
} bind def
54.02 87.4854 o
grestore
gsave
31.113750 83.688493 translate
0.000000 rotate
0.000000 0.000000 m /zero glyphshow
6.362305 0.000000 m /period glyphshow
9.541016 0.000000 m /four glyphshow
grestore
gsave
/o {
gsave
newpath
translate
0.8 setlinewidth
1 setlinejoin
0 setlinecap
0 0 m
-3.5 0 l

gsave
0.000 setgray
fill
grestore
stroke
grestore
} bind def
54.02 129.752 o
grestore
gsave
31.113750 125.954714 translate
0.000000 rotate
0.000000 0.000000 m /zero glyphshow
6.362305 0.000000 m /period glyphshow
9.541016 0.000000 m /five glyphshow
grestore
gsave
25.035625 101.114230 translate
90.000000 rotate
0.000000 0.000000 m /L glyphshow
5.571289 0.000000 m /L glyphshow
grestore
1.500 setlinewidth
2 setlinecap
0.122 0.467 0.706 setrgbcolor
gsave
185.6 129.5 54.02 41.96 clipbox
62.457784 165.539951 m
104.646704 158.594085 l
146.835624 156.30776 l
189.024544 154.594771 l
231.213464 154.776816 l
stroke
grestore
1.000 setlinewidth
0 setlinecap
gsave
185.6 129.5 54.02 41.96 clipbox
/o {
gsave
newpath
translate
1.0 setlinewidth
1 setlinejoin
0 setlinecap
0 -3 m
0.795609 -3 1.55874 -2.683901 2.12132 -2.12132 c
2.683901 -1.55874 3 -0.795609 3 0 c
3 0.795609 2.683901 1.55874 2.12132 2.12132 c
1.55874 2.683901 0.795609 3 0 3 c
-0.795609 3 -1.55874 2.683901 -2.12132 2.12132 c
-2.683901 1.55874 -3 0.795609 -3 0 c
-3 -0.795609 -2.683901 -1.55874 -2.12132 -2.12132 c
-1.55874 -2.683901 -0.795609 -3 0 -3 c
cl

gsave
0.122 0.467 0.706 setrgbcolor
fill
grestore
stroke
grestore
} bind def
62.4578 165.54 o
104.647 158.594 o
146.836 156.308 o
189.025 154.595 o
231.213 154.777 o
grestore
1.500 setlinewidth
2 setlinecap
1.000 0.498 0.055 setrgbcolor
gsave
185.6 129.5 54.02 41.96 clipbox
62.457784 68.453796 m
104.646704 72.980952 l
146.835624 67.051216 l
189.024544 66.823822 l
231.213464 66.891149 l
stroke
grestore
1.000 setlinewidth
0 setlinecap
gsave
185.6 129.5 54.02 41.96 clipbox
/o {
gsave
newpath
translate
1.0 setlinewidth
1 setlinejoin
0 setlinecap
0 -3 m
0.795609 -3 1.55874 -2.683901 2.12132 -2.12132 c
2.683901 -1.55874 3 -0.795609 3 0 c
3 0.795609 2.683901 1.55874 2.12132 2.12132 c
1.55874 2.683901 0.795609 3 0 3 c
-0.795609 3 -1.55874 2.683901 -2.12132 2.12132 c
-2.683901 1.55874 -3 0.795609 -3 0 c
-3 -0.795609 -2.683901 -1.55874 -2.12132 -2.12132 c
-1.55874 -2.683901 -0.795609 -3 0 -3 c
cl

gsave
1.000 0.498 0.055 setrgbcolor
fill
grestore
stroke
grestore
} bind def
62.4578 68.4538 o
104.647 72.981 o
146.836 67.0512 o
189.025 66.8238 o
231.213 66.8911 o
grestore
1.500 setlinewidth
2 setlinecap
0.173 0.627 0.173 setrgbcolor
gsave
185.6 129.5 54.02 41.96 clipbox
62.457784 79.365082 m
104.646704 75.865125 l
146.835624 76.699902 l
189.024544 70.089 l
231.213464 70.669419 l
stroke
grestore
1.000 setlinewidth
0 setlinecap
gsave
185.6 129.5 54.02 41.96 clipbox
/o {
gsave
newpath
translate
1.0 setlinewidth
1 setlinejoin
0 setlinecap
0 -3 m
0.795609 -3 1.55874 -2.683901 2.12132 -2.12132 c
2.683901 -1.55874 3 -0.795609 3 0 c
3 0.795609 2.683901 1.55874 2.12132 2.12132 c
1.55874 2.683901 0.795609 3 0 3 c
-0.795609 3 -1.55874 2.683901 -2.12132 2.12132 c
-2.683901 1.55874 -3 0.795609 -3 0 c
-3 -0.795609 -2.683901 -1.55874 -2.12132 -2.12132 c
-1.55874 -2.683901 -0.795609 -3 0 -3 c
cl

gsave
0.173 0.627 0.173 setrgbcolor
fill
grestore
stroke
grestore
} bind def
62.4578 79.3651 o
104.647 75.8651 o
146.836 76.6999 o
189.025 70.089 o
231.213 70.6694 o
grestore
1.500 setlinewidth
2 setlinecap
0.839 0.153 0.157 setrgbcolor
gsave
185.6 129.5 54.02 41.96 clipbox
62.457784 58.95889 m
104.646704 51.551661 l
146.835624 52.472079 l
189.024544 48.199304 l
231.213464 47.84476 l
stroke
grestore
1.000 setlinewidth
0 setlinecap
gsave
185.6 129.5 54.02 41.96 clipbox
/o {
gsave
newpath
translate
1.0 setlinewidth
1 setlinejoin
0 setlinecap
0 -3 m
0.795609 -3 1.55874 -2.683901 2.12132 -2.12132 c
2.683901 -1.55874 3 -0.795609 3 0 c
3 0.795609 2.683901 1.55874 2.12132 2.12132 c
1.55874 2.683901 0.795609 3 0 3 c
-0.795609 3 -1.55874 2.683901 -2.12132 2.12132 c
-2.683901 1.55874 -3 0.795609 -3 0 c
-3 -0.795609 -2.683901 -1.55874 -2.12132 -2.12132 c
-1.55874 -2.683901 -0.795609 -3 0 -3 c
cl

gsave
0.839 0.153 0.157 setrgbcolor
fill
grestore
stroke
grestore
} bind def
62.4578 58.9589 o
104.647 51.5517 o
146.836 52.4721 o
189.025 48.1993 o
231.213 47.8448 o
grestore
1.500 setlinewidth
[5.55 2.4] 0 setdash
0.580 0.404 0.741 setrgbcolor
gsave
185.6 129.5 54.02 41.96 clipbox
62.457784 155.518345 m
104.646704 155.518345 l
146.835624 155.518345 l
189.024544 155.518345 l
231.213464 155.518345 l
stroke
grestore
0.549 0.337 0.294 setrgbcolor
gsave
185.6 129.5 54.02 41.96 clipbox
62.457784 83.782848 m
104.646704 83.782848 l
146.835624 83.782848 l
189.024544 83.782848 l
231.213464 83.782848 l
stroke
grestore
0.890 0.467 0.761 setrgbcolor
gsave
185.6 129.5 54.02 41.96 clipbox
62.457784 90.907242 m
104.646704 90.907242 l
146.835624 90.907242 l
189.024544 90.907242 l
231.213464 90.907242 l
stroke
grestore
0.498 setgray
gsave
185.6 129.5 54.02 41.96 clipbox
62.457784 74.969918 m
104.646704 74.969918 l
146.835624 74.969918 l
189.024544 74.969918 l
231.213464 74.969918 l
stroke
grestore
0.800 setlinewidth
0 setlinejoin
2 setlinecap
[] 0 setdash
0.000 setgray
gsave
54.02 41.96 m
54.02 171.42471 l
stroke
grestore
gsave
239.651248 41.96 m
239.651248 171.42471 l
stroke
grestore
gsave
54.02 41.96 m
239.651248 41.96 l
stroke
grestore
gsave
54.02 171.42471 m
239.651248 171.42471 l
stroke
grestore
gsave
300.469376 215.90471 m
486.100624 215.90471 l
486.100624 345.369421 l
300.469376 345.369421 l
cl
1.000 setgray
fill
grestore
1 setlinejoin
0 setlinecap
[] 0 setdash
gsave
/o {
gsave
newpath
translate
0.8 setlinewidth
1 setlinejoin
0 setlinecap
0 0 m
0 -3.5 l

gsave
0.000 setgray
fill
grestore
stroke
grestore
} bind def
308.907 215.905 o
grestore
gsave
300.954035 201.310960 translate
0.000000 rotate
0.000000 0.000000 m /zero glyphshow
6.362305 0.000000 m /period glyphshow
9.541016 0.000000 m /one glyphshow
grestore
gsave
/o {
gsave
newpath
translate
0.8 setlinewidth
1 setlinejoin
0 setlinecap
0 0 m
0 -3.5 l

gsave
0.000 setgray
fill
grestore
stroke
grestore
} bind def
351.096 215.905 o
grestore
gsave
347.916393 201.310960 translate
0.000000 rotate
0.000000 0.000000 m /one glyphshow
grestore
gsave
/o {
gsave
newpath
translate
0.8 setlinewidth
1 setlinejoin
0 setlinecap
0 0 m
0 -3.5 l

gsave
0.000 setgray
fill
grestore
stroke
grestore
} bind def
393.285 215.905 o
grestore
gsave
390.105312 201.310960 translate
0.000000 rotate
0.000000 0.000000 m /two glyphshow
grestore
gsave
/o {
gsave
newpath
translate
0.8 setlinewidth
1 setlinejoin
0 setlinecap
0 0 m
0 -3.5 l

gsave
0.000 setgray
fill
grestore
stroke
grestore
} bind def
435.474 215.905 o
grestore
gsave
432.294232 201.310960 translate
0.000000 rotate
0.000000 0.000000 m /five glyphshow
grestore
gsave
/o {
gsave
newpath
translate
0.8 setlinewidth
1 setlinejoin
0 setlinecap
0 0 m
0 -3.5 l

gsave
0.000 setgray
fill
grestore
stroke
grestore
} bind def
477.663 215.905 o
grestore
gsave
471.303465 201.310960 translate
0.000000 rotate
0.000000 0.000000 m /one glyphshow
6.362305 0.000000 m /zero glyphshow
grestore
gsave
389.855312 187.639085 translate
0.000000 rotate
0.000000 0.000000 m /B glyphshow
grestore
gsave
/o {
gsave
newpath
translate
0.8 setlinewidth
1 setlinejoin
0 setlinecap
0 0 m
-3.5 0 l

gsave
0.000 setgray
fill
grestore
stroke
grestore
} bind def
300.469 234.973 o
grestore
gsave
271.203751 231.175727 translate
0.000000 rotate
0.000000 0.000000 m /zero glyphshow
6.362305 0.000000 m /period glyphshow
9.541016 0.000000 m /seven glyphshow
15.903320 0.000000 m /five glyphshow
grestore
gsave
/o {
gsave
newpath
translate
0.8 setlinewidth
1 setlinejoin
0 setlinecap
0 0 m
-3.5 0 l

gsave
0.000 setgray
fill
grestore
stroke
grestore
} bind def
300.469 260.685 o
grestore
gsave
271.203751 256.888311 translate
0.000000 rotate
0.000000 0.000000 m /zero glyphshow
6.362305 0.000000 m /period glyphshow
9.541016 0.000000 m /eight glyphshow
15.903320 0.000000 m /zero glyphshow
grestore
gsave
/o {
gsave
newpath
translate
0.8 setlinewidth
1 setlinejoin
0 setlinecap
0 0 m
-3.5 0 l

gsave
0.000 setgray
fill
grestore
stroke
grestore
} bind def
300.469 286.398 o
grestore
gsave
271.203751 282.600896 translate
0.000000 rotate
0.000000 0.000000 m /zero glyphshow
6.362305 0.000000 m /period glyphshow
9.541016 0.000000 m /eight glyphshow
15.903320 0.000000 m /five glyphshow
grestore
gsave
/o {
gsave
newpath
translate
0.8 setlinewidth
1 setlinejoin
0 setlinecap
0 0 m
-3.5 0 l

gsave
0.000 setgray
fill
grestore
stroke
grestore
} bind def
300.469 312.11 o
grestore
gsave
271.203751 308.313480 translate
0.000000 rotate
0.000000 0.000000 m /zero glyphshow
6.362305 0.000000 m /period glyphshow
9.541016 0.000000 m /nine glyphshow
15.903320 0.000000 m /zero glyphshow
grestore
gsave
/o {
gsave
newpath
translate
0.8 setlinewidth
1 setlinejoin
0 setlinecap
0 0 m
-3.5 0 l

gsave
0.000 setgray
fill
grestore
stroke
grestore
} bind def
300.469 337.823 o
grestore
gsave
271.203751 334.026065 translate
0.000000 rotate
0.000000 0.000000 m /zero glyphshow
6.362305 0.000000 m /period glyphshow
9.541016 0.000000 m /nine glyphshow
15.903320 0.000000 m /five glyphshow
grestore
gsave
265.125626 270.058940 translate
90.000000 rotate
0.000000 0.000000 m /A glyphshow
6.840820 0.000000 m /U glyphshow
14.160156 0.000000 m /C glyphshow
grestore
1.500 setlinewidth
2 setlinecap
0.122 0.467 0.706 setrgbcolor
gsave
185.6 129.5 300.5 215.9 clipbox
308.90716 236.572786 m
351.09608 251.184725 l
393.285 257.283658 l
435.47392 255.830641 l
477.66284 256.670208 l
stroke
grestore
1.000 setlinewidth
0 setlinecap
gsave
185.6 129.5 300.5 215.9 clipbox
/o {
gsave
newpath
translate
1.0 setlinewidth
1 setlinejoin
0 setlinecap
0 -3 m
0.795609 -3 1.55874 -2.683901 2.12132 -2.12132 c
2.683901 -1.55874 3 -0.795609 3 0 c
3 0.795609 2.683901 1.55874 2.12132 2.12132 c
1.55874 2.683901 0.795609 3 0 3 c
-0.795609 3 -1.55874 2.683901 -2.12132 2.12132 c
-2.683901 1.55874 -3 0.795609 -3 0 c
-3 -0.795609 -2.683901 -1.55874 -2.12132 -2.12132 c
-1.55874 -2.683901 -0.795609 -3 0 -3 c
cl

gsave
0.122 0.467 0.706 setrgbcolor
fill
grestore
stroke
grestore
} bind def
308.907 236.573 o
351.096 251.185 o
393.285 257.284 o
435.474 255.831 o
477.663 256.67 o
grestore
1.500 setlinewidth
2 setlinecap
1.000 0.498 0.055 setrgbcolor
gsave
185.6 129.5 300.5 215.9 clipbox
308.90716 221.78947 m
351.09608 282.810288 l
393.285 309.728784 l
435.47392 333.342006 l
477.66284 339.484661 l
stroke
grestore
1.000 setlinewidth
0 setlinecap
gsave
185.6 129.5 300.5 215.9 clipbox
/o {
gsave
newpath
translate
1.0 setlinewidth
1 setlinejoin
0 setlinecap
0 -3 m
0.795609 -3 1.55874 -2.683901 2.12132 -2.12132 c
2.683901 -1.55874 3 -0.795609 3 0 c
3 0.795609 2.683901 1.55874 2.12132 2.12132 c
1.55874 2.683901 0.795609 3 0 3 c
-0.795609 3 -1.55874 2.683901 -2.12132 2.12132 c
-2.683901 1.55874 -3 0.795609 -3 0 c
-3 -0.795609 -2.683901 -1.55874 -2.12132 -2.12132 c
-1.55874 -2.683901 -0.795609 -3 0 -3 c
cl

gsave
1.000 0.498 0.055 setrgbcolor
fill
grestore
stroke
grestore
} bind def
308.907 221.789 o
351.096 282.81 o
393.285 309.729 o
435.474 333.342 o
477.663 339.485 o
grestore
1.500 setlinewidth
2 setlinecap
0.173 0.627 0.173 setrgbcolor
gsave
185.6 129.5 300.5 215.9 clipbox
308.90716 325.441173 m
351.09608 323.810391 l
393.285 323.578719 l
435.47392 322.657296 l
477.66284 320.363444 l
stroke
grestore
1.000 setlinewidth
0 setlinecap
gsave
185.6 129.5 300.5 215.9 clipbox
/o {
gsave
newpath
translate
1.0 setlinewidth
1 setlinejoin
0 setlinecap
0 -3 m
0.795609 -3 1.55874 -2.683901 2.12132 -2.12132 c
2.683901 -1.55874 3 -0.795609 3 0 c
3 0.795609 2.683901 1.55874 2.12132 2.12132 c
1.55874 2.683901 0.795609 3 0 3 c
-0.795609 3 -1.55874 2.683901 -2.12132 2.12132 c
-2.683901 1.55874 -3 0.795609 -3 0 c
-3 -0.795609 -2.683901 -1.55874 -2.12132 -2.12132 c
-1.55874 -2.683901 -0.795609 -3 0 -3 c
cl

gsave
0.173 0.627 0.173 setrgbcolor
fill
grestore
stroke
grestore
} bind def
308.907 325.441 o
351.096 323.81 o
393.285 323.579 o
435.474 322.657 o
477.663 320.363 o
grestore
1.500 setlinewidth
2 setlinecap
0.839 0.153 0.157 setrgbcolor
gsave
185.6 129.5 300.5 215.9 clipbox
308.90716 310.558528 m
351.09608 316.608269 l
393.285 320.13707 l
435.47392 326.593787 l
477.66284 330.414747 l
stroke
grestore
1.000 setlinewidth
0 setlinecap
gsave
185.6 129.5 300.5 215.9 clipbox
/o {
gsave
newpath
translate
1.0 setlinewidth
1 setlinejoin
0 setlinecap
0 -3 m
0.795609 -3 1.55874 -2.683901 2.12132 -2.12132 c
2.683901 -1.55874 3 -0.795609 3 0 c
3 0.795609 2.683901 1.55874 2.12132 2.12132 c
1.55874 2.683901 0.795609 3 0 3 c
-0.795609 3 -1.55874 2.683901 -2.12132 2.12132 c
-2.683901 1.55874 -3 0.795609 -3 0 c
-3 -0.795609 -2.683901 -1.55874 -2.12132 -2.12132 c
-1.55874 -2.683901 -0.795609 -3 0 -3 c
cl

gsave
0.839 0.153 0.157 setrgbcolor
fill
grestore
stroke
grestore
} bind def
308.907 310.559 o
351.096 316.608 o
393.285 320.137 o
435.474 326.594 o
477.663 330.415 o
grestore
1.500 setlinewidth
[5.55 2.4] 0 setdash
0.580 0.404 0.741 setrgbcolor
gsave
185.6 129.5 300.5 215.9 clipbox
308.90716 258.327342 m
351.09608 258.327342 l
393.285 258.327342 l
435.47392 258.327342 l
477.66284 258.327342 l
stroke
grestore
0.549 0.337 0.294 setrgbcolor
gsave
185.6 129.5 300.5 215.9 clipbox
308.90716 290.081356 m
351.09608 290.081356 l
393.285 290.081356 l
435.47392 290.081356 l
477.66284 290.081356 l
stroke
grestore
0.890 0.467 0.761 setrgbcolor
gsave
185.6 129.5 300.5 215.9 clipbox
308.90716 306.770366 m
351.09608 306.770366 l
393.285 306.770366 l
435.47392 306.770366 l
477.66284 306.770366 l
stroke
grestore
0.498 setgray
gsave
185.6 129.5 300.5 215.9 clipbox
308.90716 321.801943 m
351.09608 321.801943 l
393.285 321.801943 l
435.47392 321.801943 l
477.66284 321.801943 l
stroke
grestore
0.800 setlinewidth
0 setlinejoin
2 setlinecap
[] 0 setdash
0.000 setgray
gsave
300.469376 215.90471 m
300.469376 345.369421 l
stroke
grestore
gsave
486.100624 215.90471 m
486.100624 345.369421 l
stroke
grestore
gsave
300.469376 215.90471 m
486.100624 215.90471 l
stroke
grestore
gsave
300.469376 345.369421 m
486.100624 345.369421 l
stroke
grestore
gsave
300.469376 41.96 m
486.100624 41.96 l
486.100624 171.42471 l
300.469376 171.42471 l
cl
1.000 setgray
fill
grestore
1 setlinejoin
0 setlinecap
[] 0 setdash
gsave
/o {
gsave
newpath
translate
0.8 setlinewidth
1 setlinejoin
0 setlinecap
0 0 m
0 -3.5 l

gsave
0.000 setgray
fill
grestore
stroke
grestore
} bind def
308.907 41.96 o
grestore
gsave
300.954035 27.366250 translate
0.000000 rotate
0.000000 0.000000 m /zero glyphshow
6.362305 0.000000 m /period glyphshow
9.541016 0.000000 m /one glyphshow
grestore
gsave
/o {
gsave
newpath
translate
0.8 setlinewidth
1 setlinejoin
0 setlinecap
0 0 m
0 -3.5 l

gsave
0.000 setgray
fill
grestore
stroke
grestore
} bind def
351.096 41.96 o
grestore
gsave
347.916393 27.366250 translate
0.000000 rotate
0.000000 0.000000 m /one glyphshow
grestore
gsave
/o {
gsave
newpath
translate
0.8 setlinewidth
1 setlinejoin
0 setlinecap
0 0 m
0 -3.5 l

gsave
0.000 setgray
fill
grestore
stroke
grestore
} bind def
393.285 41.96 o
grestore
gsave
390.105312 27.366250 translate
0.000000 rotate
0.000000 0.000000 m /two glyphshow
grestore
gsave
/o {
gsave
newpath
translate
0.8 setlinewidth
1 setlinejoin
0 setlinecap
0 0 m
0 -3.5 l

gsave
0.000 setgray
fill
grestore
stroke
grestore
} bind def
435.474 41.96 o
grestore
gsave
432.294232 27.366250 translate
0.000000 rotate
0.000000 0.000000 m /five glyphshow
grestore
gsave
/o {
gsave
newpath
translate
0.8 setlinewidth
1 setlinejoin
0 setlinecap
0 0 m
0 -3.5 l

gsave
0.000 setgray
fill
grestore
stroke
grestore
} bind def
477.663 41.96 o
grestore
gsave
471.303465 27.366250 translate
0.000000 rotate
0.000000 0.000000 m /one glyphshow
6.362305 0.000000 m /zero glyphshow
grestore
gsave
389.855312 13.694375 translate
0.000000 rotate
0.000000 0.000000 m /B glyphshow
grestore
gsave
/o {
gsave
newpath
translate
0.8 setlinewidth
1 setlinejoin
0 setlinecap
0 0 m
-3.5 0 l

gsave
0.000 setgray
fill
grestore
stroke
grestore
} bind def
300.469 52.1984 o
grestore
gsave
277.563126 48.401536 translate
0.000000 rotate
0.000000 0.000000 m /zero glyphshow
6.362305 0.000000 m /period glyphshow
9.541016 0.000000 m /three glyphshow
grestore
gsave
/o {
gsave
newpath
translate
0.8 setlinewidth
1 setlinejoin
0 setlinecap
0 0 m
-3.5 0 l

gsave
0.000 setgray
fill
grestore
stroke
grestore
} bind def
300.469 81.5265 o
grestore
gsave
277.563126 77.729633 translate
0.000000 rotate
0.000000 0.000000 m /zero glyphshow
6.362305 0.000000 m /period glyphshow
9.541016 0.000000 m /four glyphshow
grestore
gsave
/o {
gsave
newpath
translate
0.8 setlinewidth
1 setlinejoin
0 setlinecap
0 0 m
-3.5 0 l

gsave
0.000 setgray
fill
grestore
stroke
grestore
} bind def
300.469 110.855 o
grestore
gsave
277.563126 107.057729 translate
0.000000 rotate
0.000000 0.000000 m /zero glyphshow
6.362305 0.000000 m /period glyphshow
9.541016 0.000000 m /five glyphshow
grestore
gsave
/o {
gsave
newpath
translate
0.8 setlinewidth
1 setlinejoin
0 setlinecap
0 0 m
-3.5 0 l

gsave
0.000 setgray
fill
grestore
stroke
grestore
} bind def
300.469 140.183 o
grestore
gsave
277.563126 136.385826 translate
0.000000 rotate
0.000000 0.000000 m /zero glyphshow
6.362305 0.000000 m /period glyphshow
9.541016 0.000000 m /six glyphshow
grestore
gsave
/o {
gsave
newpath
translate
0.8 setlinewidth
1 setlinejoin
0 setlinecap
0 0 m
-3.5 0 l

gsave
0.000 setgray
fill
grestore
stroke
grestore
} bind def
300.469 169.511 o
grestore
gsave
277.563126 165.713922 translate
0.000000 rotate
0.000000 0.000000 m /zero glyphshow
6.362305 0.000000 m /period glyphshow
9.541016 0.000000 m /seven glyphshow
grestore
gsave
271.485001 101.114230 translate
90.000000 rotate
0.000000 0.000000 m /L glyphshow
5.571289 0.000000 m /L glyphshow
grestore
1.500 setlinewidth
2 setlinecap
0.122 0.467 0.706 setrgbcolor
gsave
185.6 129.5 300.5 41.96 clipbox
308.90716 165.539951 m
351.09608 139.203527 l
393.285 131.838147 l
435.47392 128.666502 l
477.66284 128.127846 l
stroke
grestore
1.000 setlinewidth
0 setlinecap
gsave
185.6 129.5 300.5 41.96 clipbox
/o {
gsave
newpath
translate
1.0 setlinewidth
1 setlinejoin
0 setlinecap
0 -3 m
0.795609 -3 1.55874 -2.683901 2.12132 -2.12132 c
2.683901 -1.55874 3 -0.795609 3 0 c
3 0.795609 2.683901 1.55874 2.12132 2.12132 c
1.55874 2.683901 0.795609 3 0 3 c
-0.795609 3 -1.55874 2.683901 -2.12132 2.12132 c
-2.683901 1.55874 -3 0.795609 -3 0 c
-3 -0.795609 -2.683901 -1.55874 -2.12132 -2.12132 c
-1.55874 -2.683901 -0.795609 -3 0 -3 c
cl

gsave
0.122 0.467 0.706 setrgbcolor
fill
grestore
stroke
grestore
} bind def
308.907 165.54 o
351.096 139.204 o
393.285 131.838 o
435.474 128.667 o
477.663 128.128 o
grestore
1.500 setlinewidth
2 setlinecap
1.000 0.498 0.055 setrgbcolor
gsave
185.6 129.5 300.5 41.96 clipbox
308.90716 146.181296 m
351.09608 108.937677 l
393.285 90.203349 l
435.47392 67.165989 l
477.66284 56.610105 l
stroke
grestore
1.000 setlinewidth
0 setlinecap
gsave
185.6 129.5 300.5 41.96 clipbox
/o {
gsave
newpath
translate
1.0 setlinewidth
1 setlinejoin
0 setlinecap
0 -3 m
0.795609 -3 1.55874 -2.683901 2.12132 -2.12132 c
2.683901 -1.55874 3 -0.795609 3 0 c
3 0.795609 2.683901 1.55874 2.12132 2.12132 c
1.55874 2.683901 0.795609 3 0 3 c
-0.795609 3 -1.55874 2.683901 -2.12132 2.12132 c
-2.683901 1.55874 -3 0.795609 -3 0 c
-3 -0.795609 -2.683901 -1.55874 -2.12132 -2.12132 c
-1.55874 -2.683901 -0.795609 -3 0 -3 c
cl

gsave
1.000 0.498 0.055 setrgbcolor
fill
grestore
stroke
grestore
} bind def
308.907 146.181 o
351.096 108.938 o
393.285 90.2033 o
435.474 67.166 o
477.663 56.6101 o
grestore
1.500 setlinewidth
2 setlinecap
0.173 0.627 0.173 setrgbcolor
gsave
185.6 129.5 300.5 41.96 clipbox
308.90716 161.960327 m
351.09608 85.953536 l
393.285 74.824077 l
435.47392 69.314562 l
477.66284 69.548785 l
stroke
grestore
1.000 setlinewidth
0 setlinecap
gsave
185.6 129.5 300.5 41.96 clipbox
/o {
gsave
newpath
translate
1.0 setlinewidth
1 setlinejoin
0 setlinecap
0 -3 m
0.795609 -3 1.55874 -2.683901 2.12132 -2.12132 c
2.683901 -1.55874 3 -0.795609 3 0 c
3 0.795609 2.683901 1.55874 2.12132 2.12132 c
1.55874 2.683901 0.795609 3 0 3 c
-0.795609 3 -1.55874 2.683901 -2.12132 2.12132 c
-2.683901 1.55874 -3 0.795609 -3 0 c
-3 -0.795609 -2.683901 -1.55874 -2.12132 -2.12132 c
-1.55874 -2.683901 -0.795609 -3 0 -3 c
cl

gsave
0.173 0.627 0.173 setrgbcolor
fill
grestore
stroke
grestore
} bind def
308.907 161.96 o
351.096 85.9535 o
393.285 74.8241 o
435.474 69.3146 o
477.663 69.5488 o
grestore
1.500 setlinewidth
2 setlinecap
0.839 0.153 0.157 setrgbcolor
gsave
185.6 129.5 300.5 41.96 clipbox
308.90716 102.179663 m
351.09608 71.653295 l
393.285 63.609278 l
435.47392 53.72909 l
477.66284 47.84476 l
stroke
grestore
1.000 setlinewidth
0 setlinecap
gsave
185.6 129.5 300.5 41.96 clipbox
/o {
gsave
newpath
translate
1.0 setlinewidth
1 setlinejoin
0 setlinecap
0 -3 m
0.795609 -3 1.55874 -2.683901 2.12132 -2.12132 c
2.683901 -1.55874 3 -0.795609 3 0 c
3 0.795609 2.683901 1.55874 2.12132 2.12132 c
1.55874 2.683901 0.795609 3 0 3 c
-0.795609 3 -1.55874 2.683901 -2.12132 2.12132 c
-2.683901 1.55874 -3 0.795609 -3 0 c
-3 -0.795609 -2.683901 -1.55874 -2.12132 -2.12132 c
-1.55874 -2.683901 -0.795609 -3 0 -3 c
cl

gsave
0.839 0.153 0.157 setrgbcolor
fill
grestore
stroke
grestore
} bind def
308.907 102.18 o
351.096 71.6533 o
393.285 63.6093 o
435.474 53.7291 o
477.663 47.8448 o
grestore
1.500 setlinewidth
[5.55 2.4] 0 setdash
0.580 0.404 0.741 setrgbcolor
gsave
185.6 129.5 300.5 41.96 clipbox
308.90716 128.733892 m
351.09608 128.733892 l
393.285 128.733892 l
435.47392 128.733892 l
477.66284 128.733892 l
stroke
grestore
0.549 0.337 0.294 setrgbcolor
gsave
185.6 129.5 300.5 41.96 clipbox
308.90716 78.957366 m
351.09608 78.957366 l
393.285 78.957366 l
435.47392 78.957366 l
477.66284 78.957366 l
stroke
grestore
0.890 0.467 0.761 setrgbcolor
gsave
185.6 129.5 300.5 41.96 clipbox
308.90716 83.90091 m
351.09608 83.90091 l
393.285 83.90091 l
435.47392 83.90091 l
477.66284 83.90091 l
stroke
grestore
0.498 setgray
gsave
185.6 129.5 300.5 41.96 clipbox
308.90716 72.842165 m
351.09608 72.842165 l
393.285 72.842165 l
435.47392 72.842165 l
477.66284 72.842165 l
stroke
grestore
0.800 setlinewidth
0 setlinejoin
2 setlinecap
[] 0 setdash
0.000 setgray
gsave
300.469376 41.96 m
300.469376 171.42471 l
stroke
grestore
gsave
486.100624 41.96 m
486.100624 171.42471 l
stroke
grestore
gsave
300.469376 41.96 m
486.100624 41.96 l
stroke
grestore
gsave
300.469376 171.42471 m
486.100624 171.42471 l
stroke
grestore
gsave
546.918752 215.90471 m
732.55 215.90471 l
732.55 345.369421 l
546.918752 345.369421 l
cl
1.000 setgray
fill
grestore
1 setlinejoin
0 setlinecap
[] 0 setdash
gsave
/o {
gsave
newpath
translate
0.8 setlinewidth
1 setlinejoin
0 setlinecap
0 0 m
0 -3.5 l

gsave
0.000 setgray
fill
grestore
stroke
grestore
} bind def
555.357 215.905 o
grestore
gsave
552.176849 201.310960 translate
0.000000 rotate
0.000000 0.000000 m /two glyphshow
grestore
gsave
/o {
gsave
newpath
translate
0.8 setlinewidth
1 setlinejoin
0 setlinecap
0 0 m
0 -3.5 l

gsave
0.000 setgray
fill
grestore
stroke
grestore
} bind def
597.545 215.905 o
grestore
gsave
594.365769 201.310960 translate
0.000000 rotate
0.000000 0.000000 m /four glyphshow
grestore
gsave
/o {
gsave
newpath
translate
0.8 setlinewidth
1 setlinejoin
0 setlinecap
0 0 m
0 -3.5 l

gsave
0.000 setgray
fill
grestore
stroke
grestore
} bind def
639.734 215.905 o
grestore
gsave
636.554689 201.310960 translate
0.000000 rotate
0.000000 0.000000 m /six glyphshow
grestore
gsave
/o {
gsave
newpath
translate
0.8 setlinewidth
1 setlinejoin
0 setlinecap
0 0 m
0 -3.5 l

gsave
0.000 setgray
fill
grestore
stroke
grestore
} bind def
681.923 215.905 o
grestore
gsave
678.743609 201.310960 translate
0.000000 rotate
0.000000 0.000000 m /eight glyphshow
grestore
gsave
/o {
gsave
newpath
translate
0.8 setlinewidth
1 setlinejoin
0 setlinecap
0 0 m
0 -3.5 l

gsave
0.000 setgray
fill
grestore
stroke
grestore
} bind def
724.112 215.905 o
grestore
gsave
717.752841 201.310960 translate
0.000000 rotate
0.000000 0.000000 m /one glyphshow
6.362305 0.000000 m /zero glyphshow
grestore
gsave
635.421876 187.639085 translate
0.000000 rotate
0.000000 0.000000 m /M glyphshow
grestore
gsave
/o {
gsave
newpath
translate
0.8 setlinewidth
1 setlinejoin
0 setlinecap
0 0 m
-3.5 0 l

gsave
0.000 setgray
fill
grestore
stroke
grestore
} bind def
546.919 229.262 o
grestore
gsave
517.653127 225.465275 translate
0.000000 rotate
0.000000 0.000000 m /zero glyphshow
6.362305 0.000000 m /period glyphshow
9.541016 0.000000 m /eight glyphshow
15.903320 0.000000 m /zero glyphshow
grestore
gsave
/o {
gsave
newpath
translate
0.8 setlinewidth
1 setlinejoin
0 setlinecap
0 0 m
-3.5 0 l

gsave
0.000 setgray
fill
grestore
stroke
grestore
} bind def
546.919 267.763 o
grestore
gsave
517.653127 263.966113 translate
0.000000 rotate
0.000000 0.000000 m /zero glyphshow
6.362305 0.000000 m /period glyphshow
9.541016 0.000000 m /eight glyphshow
15.903320 0.000000 m /five glyphshow
grestore
gsave
/o {
gsave
newpath
translate
0.8 setlinewidth
1 setlinejoin
0 setlinecap
0 0 m
-3.5 0 l

gsave
0.000 setgray
fill
grestore
stroke
grestore
} bind def
546.919 306.264 o
grestore
gsave
517.653127 302.466951 translate
0.000000 rotate
0.000000 0.000000 m /zero glyphshow
6.362305 0.000000 m /period glyphshow
9.541016 0.000000 m /nine glyphshow
15.903320 0.000000 m /zero glyphshow
grestore
gsave
/o {
gsave
newpath
translate
0.8 setlinewidth
1 setlinejoin
0 setlinecap
0 0 m
-3.5 0 l

gsave
0.000 setgray
fill
grestore
stroke
grestore
} bind def
546.919 344.765 o
grestore
gsave
517.653127 340.967789 translate
0.000000 rotate
0.000000 0.000000 m /zero glyphshow
6.362305 0.000000 m /period glyphshow
9.541016 0.000000 m /nine glyphshow
15.903320 0.000000 m /five glyphshow
grestore
gsave
511.575002 270.058940 translate
90.000000 rotate
0.000000 0.000000 m /A glyphshow
6.840820 0.000000 m /U glyphshow
14.160156 0.000000 m /C glyphshow
grestore
1.500 setlinewidth
2 setlinecap
0.122 0.467 0.706 setrgbcolor
gsave
185.6 129.5 546.9 215.9 clipbox
555.356536 227.161001 m
597.545456 221.78947 l
639.734376 223.430321 l
681.923296 226.406116 l
724.112216 227.847023 l
stroke
grestore
1.000 setlinewidth
0 setlinecap
gsave
185.6 129.5 546.9 215.9 clipbox
/o {
gsave
newpath
translate
1.0 setlinewidth
1 setlinejoin
0 setlinecap
0 -3 m
0.795609 -3 1.55874 -2.683901 2.12132 -2.12132 c
2.683901 -1.55874 3 -0.795609 3 0 c
3 0.795609 2.683901 1.55874 2.12132 2.12132 c
1.55874 2.683901 0.795609 3 0 3 c
-0.795609 3 -1.55874 2.683901 -2.12132 2.12132 c
-2.683901 1.55874 -3 0.795609 -3 0 c
-3 -0.795609 -2.683901 -1.55874 -2.12132 -2.12132 c
-1.55874 -2.683901 -0.795609 -3 0 -3 c
cl

gsave
0.122 0.467 0.706 setrgbcolor
fill
grestore
stroke
grestore
} bind def
555.357 227.161 o
597.545 221.789 o
639.734 223.43 o
681.923 226.406 o
724.112 227.847 o
grestore
1.500 setlinewidth
2 setlinecap
1.000 0.498 0.055 setrgbcolor
gsave
185.6 129.5 546.9 215.9 clipbox
555.356536 300.962818 m
597.545456 338.196667 l
639.734376 339.484661 l
681.923296 338.213514 l
724.112216 337.923974 l
stroke
grestore
1.000 setlinewidth
0 setlinecap
gsave
185.6 129.5 546.9 215.9 clipbox
/o {
gsave
newpath
translate
1.0 setlinewidth
1 setlinejoin
0 setlinecap
0 -3 m
0.795609 -3 1.55874 -2.683901 2.12132 -2.12132 c
2.683901 -1.55874 3 -0.795609 3 0 c
3 0.795609 2.683901 1.55874 2.12132 2.12132 c
1.55874 2.683901 0.795609 3 0 3 c
-0.795609 3 -1.55874 2.683901 -2.12132 2.12132 c
-2.683901 1.55874 -3 0.795609 -3 0 c
-3 -0.795609 -2.683901 -1.55874 -2.12132 -2.12132 c
-1.55874 -2.683901 -0.795609 -3 0 -3 c
cl

gsave
1.000 0.498 0.055 setrgbcolor
fill
grestore
stroke
grestore
} bind def
555.357 300.963 o
597.545 338.197 o
639.734 339.485 o
681.923 338.214 o
724.112 337.924 o
grestore
1.500 setlinewidth
2 setlinecap
0.173 0.627 0.173 setrgbcolor
gsave
185.6 129.5 546.9 215.9 clipbox
555.356536 319.985978 m
597.545456 322.400085 l
639.734376 320.676631 l
681.923296 321.71257 l
724.112216 319.631359 l
stroke
grestore
1.000 setlinewidth
0 setlinecap
gsave
185.6 129.5 546.9 215.9 clipbox
/o {
gsave
newpath
translate
1.0 setlinewidth
1 setlinejoin
0 setlinecap
0 -3 m
0.795609 -3 1.55874 -2.683901 2.12132 -2.12132 c
2.683901 -1.55874 3 -0.795609 3 0 c
3 0.795609 2.683901 1.55874 2.12132 2.12132 c
1.55874 2.683901 0.795609 3 0 3 c
-0.795609 3 -1.55874 2.683901 -2.12132 2.12132 c
-2.683901 1.55874 -3 0.795609 -3 0 c
-3 -0.795609 -2.683901 -1.55874 -2.12132 -2.12132 c
-1.55874 -2.683901 -0.795609 -3 0 -3 c
cl

gsave
0.173 0.627 0.173 setrgbcolor
fill
grestore
stroke
grestore
} bind def
555.357 319.986 o
597.545 322.4 o
639.734 320.677 o
681.923 321.713 o
724.112 319.631 o
grestore
1.500 setlinewidth
2 setlinecap
0.839 0.153 0.157 setrgbcolor
gsave
185.6 129.5 546.9 215.9 clipbox
555.356536 317.419035 m
597.545456 326.481291 l
639.734376 329.329648 l
681.923296 332.46593 l
724.112216 334.111374 l
stroke
grestore
1.000 setlinewidth
0 setlinecap
gsave
185.6 129.5 546.9 215.9 clipbox
/o {
gsave
newpath
translate
1.0 setlinewidth
1 setlinejoin
0 setlinecap
0 -3 m
0.795609 -3 1.55874 -2.683901 2.12132 -2.12132 c
2.683901 -1.55874 3 -0.795609 3 0 c
3 0.795609 2.683901 1.55874 2.12132 2.12132 c
1.55874 2.683901 0.795609 3 0 3 c
-0.795609 3 -1.55874 2.683901 -2.12132 2.12132 c
-2.683901 1.55874 -3 0.795609 -3 0 c
-3 -0.795609 -2.683901 -1.55874 -2.12132 -2.12132 c
-1.55874 -2.683901 -0.795609 -3 0 -3 c
cl

gsave
0.839 0.153 0.157 setrgbcolor
fill
grestore
stroke
grestore
} bind def
555.357 317.419 o
597.545 326.481 o
639.734 329.33 o
681.923 332.466 o
724.112 334.111 o
grestore
1.500 setlinewidth
[5.55 2.4] 0 setdash
0.580 0.404 0.741 setrgbcolor
gsave
185.6 129.5 546.9 215.9 clipbox
555.356536 249.083151 m
597.545456 249.083151 l
639.734376 249.083151 l
681.923296 249.083151 l
724.112216 249.083151 l
stroke
grestore
0.549 0.337 0.294 setrgbcolor
gsave
185.6 129.5 546.9 215.9 clipbox
555.356536 254.498679 m
597.545456 254.498679 l
639.734376 254.498679 l
681.923296 254.498679 l
724.112216 254.498679 l
stroke
grestore
0.890 0.467 0.761 setrgbcolor
gsave
185.6 129.5 546.9 215.9 clipbox
555.356536 299.363706 m
597.545456 299.363706 l
639.734376 299.363706 l
681.923296 299.363706 l
724.112216 299.363706 l
stroke
grestore
0.498 setgray
gsave
185.6 129.5 546.9 215.9 clipbox
555.356536 331.471864 m
597.545456 331.471864 l
639.734376 331.471864 l
681.923296 331.471864 l
724.112216 331.471864 l
stroke
grestore
0.800 setlinewidth
0 setlinejoin
2 setlinecap
[] 0 setdash
0.000 setgray
gsave
546.918752 215.90471 m
546.918752 345.369421 l
stroke
grestore
gsave
732.55 215.90471 m
732.55 345.369421 l
stroke
grestore
gsave
546.918752 215.90471 m
732.55 215.90471 l
stroke
grestore
gsave
546.918752 345.369421 m
732.55 345.369421 l
stroke
grestore
1.000 setlinewidth
0 setlinecap
0.800 setgray
gsave
739.55 220.449565 m
851.378125 220.449565 l
852.711458 220.449565 853.378125 221.116232 853.378125 222.449565 c
853.378125 338.824565 l
853.378125 340.157899 852.711458 340.824565 851.378125 340.824565 c
739.55 340.824565 l
738.216667 340.824565 737.55 340.157899 737.55 338.824565 c
737.55 222.449565 l
737.55 221.116232 738.216667 220.449565 739.55 220.449565 c
cl
gsave
1.000 setgray
fill
grestore
stroke
grestore
1.500 setlinewidth
1 setlinejoin
2 setlinecap
[] 0 setdash
0.122 0.467 0.706 setrgbcolor
gsave
741.55 332.730815 m
761.55 332.730815 l
stroke
grestore
1.000 setlinewidth
0 setlinecap
gsave
/o {
gsave
newpath
translate
1.0 setlinewidth
1 setlinejoin
0 setlinecap
0 -3 m
0.795609 -3 1.55874 -2.683901 2.12132 -2.12132 c
2.683901 -1.55874 3 -0.795609 3 0 c
3 0.795609 2.683901 1.55874 2.12132 2.12132 c
1.55874 2.683901 0.795609 3 0 3 c
-0.795609 3 -1.55874 2.683901 -2.12132 2.12132 c
-2.683901 1.55874 -3 0.795609 -3 0 c
-3 -0.795609 -2.683901 -1.55874 -2.12132 -2.12132 c
-1.55874 -2.683901 -0.795609 -3 0 -3 c
cl

gsave
0.122 0.467 0.706 setrgbcolor
fill
grestore
stroke
grestore
} bind def
751.55 332.731 o
grestore
0.000 setgray
gsave
769.550000 329.230815 translate
0.000000 rotate
0.000000 0.000000 m /b glyphshow
6.347656 0.000000 m /r glyphshow
10.458984 0.000000 m /e glyphshow
16.611328 0.000000 m /a glyphshow
22.739258 0.000000 m /s glyphshow
27.949219 0.000000 m /t glyphshow
grestore
1.500 setlinewidth
2 setlinecap
1.000 0.498 0.055 setrgbcolor
gsave
741.55 318.05894 m
761.55 318.05894 l
stroke
grestore
1.000 setlinewidth
0 setlinecap
gsave
/o {
gsave
newpath
translate
1.0 setlinewidth
1 setlinejoin
0 setlinecap
0 -3 m
0.795609 -3 1.55874 -2.683901 2.12132 -2.12132 c
2.683901 -1.55874 3 -0.795609 3 0 c
3 0.795609 2.683901 1.55874 2.12132 2.12132 c
1.55874 2.683901 0.795609 3 0 3 c
-0.795609 3 -1.55874 2.683901 -2.12132 2.12132 c
-2.683901 1.55874 -3 0.795609 -3 0 c
-3 -0.795609 -2.683901 -1.55874 -2.12132 -2.12132 c
-1.55874 -2.683901 -0.795609 -3 0 -3 c
cl

gsave
1.000 0.498 0.055 setrgbcolor
fill
grestore
stroke
grestore
} bind def
751.55 318.059 o
grestore
0.000 setgray
gsave
769.550000 314.558940 translate
0.000000 rotate
0.000000 0.000000 m /f glyphshow
3.520508 0.000000 m /i glyphshow
6.298828 0.000000 m /s glyphshow
11.508789 0.000000 m /c glyphshow
17.006836 0.000000 m /h glyphshow
23.344727 0.000000 m /e glyphshow
29.497070 0.000000 m /r glyphshow
grestore
1.500 setlinewidth
2 setlinecap
0.173 0.627 0.173 setrgbcolor
gsave
741.55 303.387065 m
761.55 303.387065 l
stroke
grestore
1.000 setlinewidth
0 setlinecap
gsave
/o {
gsave
newpath
translate
1.0 setlinewidth
1 setlinejoin
0 setlinecap
0 -3 m
0.795609 -3 1.55874 -2.683901 2.12132 -2.12132 c
2.683901 -1.55874 3 -0.795609 3 0 c
3 0.795609 2.683901 1.55874 2.12132 2.12132 c
1.55874 2.683901 0.795609 3 0 3 c
-0.795609 3 -1.55874 2.683901 -2.12132 2.12132 c
-2.683901 1.55874 -3 0.795609 -3 0 c
-3 -0.795609 -2.683901 -1.55874 -2.12132 -2.12132 c
-1.55874 -2.683901 -0.795609 -3 0 -3 c
cl

gsave
0.173 0.627 0.173 setrgbcolor
fill
grestore
stroke
grestore
} bind def
751.55 303.387 o
grestore
0.000 setgray
gsave
769.550000 299.887065 translate
0.000000 rotate
0.000000 0.000000 m /c glyphshow
5.498047 0.000000 m /r glyphshow
9.609375 0.000000 m /y glyphshow
15.527344 0.000000 m /o glyphshow
grestore
1.500 setlinewidth
2 setlinecap
0.839 0.153 0.157 setrgbcolor
gsave
741.55 288.71519 m
761.55 288.71519 l
stroke
grestore
1.000 setlinewidth
0 setlinecap
gsave
/o {
gsave
newpath
translate
1.0 setlinewidth
1 setlinejoin
0 setlinecap
0 -3 m
0.795609 -3 1.55874 -2.683901 2.12132 -2.12132 c
2.683901 -1.55874 3 -0.795609 3 0 c
3 0.795609 2.683901 1.55874 2.12132 2.12132 c
1.55874 2.683901 0.795609 3 0 3 c
-0.795609 3 -1.55874 2.683901 -2.12132 2.12132 c
-2.683901 1.55874 -3 0.795609 -3 0 c
-3 -0.795609 -2.683901 -1.55874 -2.12132 -2.12132 c
-1.55874 -2.683901 -0.795609 -3 0 -3 c
cl

gsave
0.839 0.153 0.157 setrgbcolor
fill
grestore
stroke
grestore
} bind def
751.55 288.715 o
grestore
0.000 setgray
gsave
769.550000 285.215190 translate
0.000000 rotate
0.000000 0.000000 m /p glyphshow
6.347656 0.000000 m /a glyphshow
12.475586 0.000000 m /r glyphshow
16.586914 0.000000 m /k glyphshow
22.377930 0.000000 m /i glyphshow
25.156250 0.000000 m /n glyphshow
31.494141 0.000000 m /s glyphshow
36.704102 0.000000 m /o glyphshow
42.822266 0.000000 m /n glyphshow
49.160156 0.000000 m /s glyphshow
grestore
1.500 setlinewidth
[5.55 2.4] 0 setdash
0.580 0.404 0.741 setrgbcolor
gsave
741.55 274.043315 m
761.55 274.043315 l
stroke
grestore
0.000 setgray
gsave
769.550000 270.543315 translate
0.000000 rotate
0.000000 0.000000 m /A glyphshow
6.840820 0.000000 m /N glyphshow
14.321289 0.000000 m /N glyphshow
21.801758 0.000000 m /hyphen glyphshow
25.410156 0.000000 m /b glyphshow
31.757812 0.000000 m /r glyphshow
35.869141 0.000000 m /e glyphshow
42.021484 0.000000 m /a glyphshow
48.149414 0.000000 m /s glyphshow
53.359375 0.000000 m /t glyphshow
grestore
0.549 0.337 0.294 setrgbcolor
gsave
741.55 259.37144 m
761.55 259.37144 l
stroke
grestore
0.000 setgray
gsave
769.550000 255.871440 translate
0.000000 rotate
0.000000 0.000000 m /A glyphshow
6.840820 0.000000 m /N glyphshow
14.321289 0.000000 m /N glyphshow
21.801758 0.000000 m /hyphen glyphshow
25.410156 0.000000 m /f glyphshow
28.930664 0.000000 m /i glyphshow
31.708984 0.000000 m /s glyphshow
36.918945 0.000000 m /c glyphshow
42.416992 0.000000 m /h glyphshow
48.754883 0.000000 m /e glyphshow
54.907227 0.000000 m /r glyphshow
grestore
0.890 0.467 0.761 setrgbcolor
gsave
741.55 244.699565 m
761.55 244.699565 l
stroke
grestore
0.000 setgray
gsave
769.550000 241.199565 translate
0.000000 rotate
0.000000 0.000000 m /A glyphshow
6.840820 0.000000 m /N glyphshow
14.321289 0.000000 m /N glyphshow
21.801758 0.000000 m /hyphen glyphshow
25.410156 0.000000 m /c glyphshow
30.908203 0.000000 m /r glyphshow
35.019531 0.000000 m /y glyphshow
40.937500 0.000000 m /o glyphshow
grestore
0.498 setgray
gsave
741.55 230.02769 m
761.55 230.02769 l
stroke
grestore
0.000 setgray
gsave
769.550000 226.527690 translate
0.000000 rotate
0.000000 0.000000 m /A glyphshow
6.840820 0.000000 m /N glyphshow
14.321289 0.000000 m /N glyphshow
21.801758 0.000000 m /hyphen glyphshow
25.410156 0.000000 m /p glyphshow
31.757812 0.000000 m /a glyphshow
37.885742 0.000000 m /r glyphshow
41.997070 0.000000 m /k glyphshow
47.788086 0.000000 m /i glyphshow
50.566406 0.000000 m /n glyphshow
56.904297 0.000000 m /s glyphshow
62.114258 0.000000 m /o glyphshow
68.232422 0.000000 m /n glyphshow
74.570312 0.000000 m /s glyphshow
grestore
gsave
546.918752 41.96 m
732.55 41.96 l
732.55 171.42471 l
546.918752 171.42471 l
cl
1.000 setgray
fill
grestore
0.800 setlinewidth
[] 0 setdash
gsave
/o {
gsave
newpath
translate
0.8 setlinewidth
1 setlinejoin
0 setlinecap
0 0 m
0 -3.5 l

gsave
0.000 setgray
fill
grestore
stroke
grestore
} bind def
555.357 41.96 o
grestore
gsave
552.176849 27.366250 translate
0.000000 rotate
0.000000 0.000000 m /two glyphshow
grestore
gsave
/o {
gsave
newpath
translate
0.8 setlinewidth
1 setlinejoin
0 setlinecap
0 0 m
0 -3.5 l

gsave
0.000 setgray
fill
grestore
stroke
grestore
} bind def
597.545 41.96 o
grestore
gsave
594.365769 27.366250 translate
0.000000 rotate
0.000000 0.000000 m /four glyphshow
grestore
gsave
/o {
gsave
newpath
translate
0.8 setlinewidth
1 setlinejoin
0 setlinecap
0 0 m
0 -3.5 l

gsave
0.000 setgray
fill
grestore
stroke
grestore
} bind def
639.734 41.96 o
grestore
gsave
636.554689 27.366250 translate
0.000000 rotate
0.000000 0.000000 m /six glyphshow
grestore
gsave
/o {
gsave
newpath
translate
0.8 setlinewidth
1 setlinejoin
0 setlinecap
0 0 m
0 -3.5 l

gsave
0.000 setgray
fill
grestore
stroke
grestore
} bind def
681.923 41.96 o
grestore
gsave
678.743609 27.366250 translate
0.000000 rotate
0.000000 0.000000 m /eight glyphshow
grestore
gsave
/o {
gsave
newpath
translate
0.8 setlinewidth
1 setlinejoin
0 setlinecap
0 0 m
0 -3.5 l

gsave
0.000 setgray
fill
grestore
stroke
grestore
} bind def
724.112 41.96 o
grestore
gsave
717.752841 27.366250 translate
0.000000 rotate
0.000000 0.000000 m /one glyphshow
6.362305 0.000000 m /zero glyphshow
grestore
gsave
635.421876 13.694375 translate
0.000000 rotate
0.000000 0.000000 m /M glyphshow
grestore
gsave
/o {
gsave
newpath
translate
0.8 setlinewidth
1 setlinejoin
0 setlinecap
0 0 m
-3.5 0 l

gsave
0.000 setgray
fill
grestore
stroke
grestore
} bind def
546.919 54.5449 o
grestore
gsave
524.012502 50.748046 translate
0.000000 rotate
0.000000 0.000000 m /zero glyphshow
6.362305 0.000000 m /period glyphshow
9.541016 0.000000 m /three glyphshow
grestore
gsave
/o {
gsave
newpath
translate
0.8 setlinewidth
1 setlinejoin
0 setlinecap
0 0 m
-3.5 0 l

gsave
0.000 setgray
fill
grestore
stroke
grestore
} bind def
546.919 94.9073 o
grestore
gsave
524.012502 91.110462 translate
0.000000 rotate
0.000000 0.000000 m /zero glyphshow
6.362305 0.000000 m /period glyphshow
9.541016 0.000000 m /four glyphshow
grestore
gsave
/o {
gsave
newpath
translate
0.8 setlinewidth
1 setlinejoin
0 setlinecap
0 0 m
-3.5 0 l

gsave
0.000 setgray
fill
grestore
stroke
grestore
} bind def
546.919 135.27 o
grestore
gsave
524.012502 131.472878 translate
0.000000 rotate
0.000000 0.000000 m /zero glyphshow
6.362305 0.000000 m /period glyphshow
9.541016 0.000000 m /five glyphshow
grestore
gsave
517.934377 101.114230 translate
90.000000 rotate
0.000000 0.000000 m /L glyphshow
5.571289 0.000000 m /L glyphshow
grestore
1.500 setlinewidth
2 setlinecap
0.122 0.467 0.706 setrgbcolor
gsave
185.6 129.5 546.9 41.96 clipbox
555.356536 160.491779 m
597.545456 159.632999 l
639.734376 158.636626 l
681.923296 156.857061 l
724.112216 155.662011 l
stroke
grestore
1.000 setlinewidth
0 setlinecap
gsave
185.6 129.5 546.9 41.96 clipbox
/o {
gsave
newpath
translate
1.0 setlinewidth
1 setlinejoin
0 setlinecap
0 -3 m
0.795609 -3 1.55874 -2.683901 2.12132 -2.12132 c
2.683901 -1.55874 3 -0.795609 3 0 c
3 0.795609 2.683901 1.55874 2.12132 2.12132 c
1.55874 2.683901 0.795609 3 0 3 c
-0.795609 3 -1.55874 2.683901 -2.12132 2.12132 c
-2.683901 1.55874 -3 0.795609 -3 0 c
-3 -0.795609 -2.683901 -1.55874 -2.12132 -2.12132 c
-1.55874 -2.683901 -0.795609 -3 0 -3 c
cl

gsave
0.122 0.467 0.706 setrgbcolor
fill
grestore
stroke
grestore
} bind def
555.357 160.492 o
597.545 159.633 o
639.734 158.637 o
681.923 156.857 o
724.112 155.662 o
grestore
1.500 setlinewidth
2 setlinecap
1.000 0.498 0.055 setrgbcolor
gsave
185.6 129.5 546.9 41.96 clipbox
555.356536 109.098614 m
597.545456 75.138575 l
639.734376 72.92834 l
681.923296 72.612486 l
724.112216 72.347651 l
stroke
grestore
1.000 setlinewidth
0 setlinecap
gsave
185.6 129.5 546.9 41.96 clipbox
/o {
gsave
newpath
translate
1.0 setlinewidth
1 setlinejoin
0 setlinecap
0 -3 m
0.795609 -3 1.55874 -2.683901 2.12132 -2.12132 c
2.683901 -1.55874 3 -0.795609 3 0 c
3 0.795609 2.683901 1.55874 2.12132 2.12132 c
1.55874 2.683901 0.795609 3 0 3 c
-0.795609 3 -1.55874 2.683901 -2.12132 2.12132 c
-2.683901 1.55874 -3 0.795609 -3 0 c
-3 -0.795609 -2.683901 -1.55874 -2.12132 -2.12132 c
-1.55874 -2.683901 -0.795609 -3 0 -3 c
cl

gsave
1.000 0.498 0.055 setrgbcolor
fill
grestore
stroke
grestore
} bind def
555.357 109.099 o
597.545 75.1386 o
639.734 72.9283 o
681.923 72.6125 o
724.112 72.3477 o
grestore
1.500 setlinewidth
2 setlinecap
0.173 0.627 0.173 setrgbcolor
gsave
185.6 129.5 546.9 41.96 clipbox
555.356536 79.249663 m
597.545456 77.907079 l
639.734376 78.015041 l
681.923296 77.102598 l
724.112216 77.538766 l
stroke
grestore
1.000 setlinewidth
0 setlinecap
gsave
185.6 129.5 546.9 41.96 clipbox
/o {
gsave
newpath
translate
1.0 setlinewidth
1 setlinejoin
0 setlinecap
0 -3 m
0.795609 -3 1.55874 -2.683901 2.12132 -2.12132 c
2.683901 -1.55874 3 -0.795609 3 0 c
3 0.795609 2.683901 1.55874 2.12132 2.12132 c
1.55874 2.683901 0.795609 3 0 3 c
-0.795609 3 -1.55874 2.683901 -2.12132 2.12132 c
-2.683901 1.55874 -3 0.795609 -3 0 c
-3 -0.795609 -2.683901 -1.55874 -2.12132 -2.12132 c
-1.55874 -2.683901 -0.795609 -3 0 -3 c
cl

gsave
0.173 0.627 0.173 setrgbcolor
fill
grestore
stroke
grestore
} bind def
555.357 79.2497 o
597.545 77.9071 o
639.734 78.015 o
681.923 77.1026 o
724.112 77.5388 o
grestore
1.500 setlinewidth
2 setlinecap
0.839 0.153 0.157 setrgbcolor
gsave
185.6 129.5 546.9 41.96 clipbox
555.356536 79.182721 m
597.545456 57.201614 l
639.734376 53.481406 l
681.923296 50.716087 l
724.112216 49.221392 l
stroke
grestore
1.000 setlinewidth
0 setlinecap
gsave
185.6 129.5 546.9 41.96 clipbox
/o {
gsave
newpath
translate
1.0 setlinewidth
1 setlinejoin
0 setlinecap
0 -3 m
0.795609 -3 1.55874 -2.683901 2.12132 -2.12132 c
2.683901 -1.55874 3 -0.795609 3 0 c
3 0.795609 2.683901 1.55874 2.12132 2.12132 c
1.55874 2.683901 0.795609 3 0 3 c
-0.795609 3 -1.55874 2.683901 -2.12132 2.12132 c
-2.683901 1.55874 -3 0.795609 -3 0 c
-3 -0.795609 -2.683901 -1.55874 -2.12132 -2.12132 c
-1.55874 -2.683901 -0.795609 -3 0 -3 c
cl

gsave
0.839 0.153 0.157 setrgbcolor
fill
grestore
stroke
grestore
} bind def
555.357 79.1827 o
597.545 57.2016 o
639.734 53.4814 o
681.923 50.7161 o
724.112 49.2214 o
grestore
1.500 setlinewidth
[5.55 2.4] 0 setdash
0.580 0.404 0.741 setrgbcolor
gsave
185.6 129.5 546.9 41.96 clipbox
555.356536 165.539951 m
597.545456 165.539951 l
639.734376 165.539951 l
681.923296 165.539951 l
724.112216 165.539951 l
stroke
grestore
0.549 0.337 0.294 setrgbcolor
gsave
185.6 129.5 546.9 41.96 clipbox
555.356536 47.84476 m
597.545456 47.84476 l
639.734376 47.84476 l
681.923296 47.84476 l
724.112216 47.84476 l
stroke
grestore
0.890 0.467 0.761 setrgbcolor
gsave
185.6 129.5 546.9 41.96 clipbox
555.356536 56.767679 m
597.545456 56.767679 l
639.734376 56.767679 l
681.923296 56.767679 l
724.112216 56.767679 l
stroke
grestore
0.498 setgray
gsave
185.6 129.5 546.9 41.96 clipbox
555.356536 110.059792 m
597.545456 110.059792 l
639.734376 110.059792 l
681.923296 110.059792 l
724.112216 110.059792 l
stroke
grestore
0.800 setlinewidth
0 setlinejoin
2 setlinecap
[] 0 setdash
0.000 setgray
gsave
546.918752 41.96 m
546.918752 171.42471 l
stroke
grestore
gsave
732.55 41.96 m
732.55 171.42471 l
stroke
grestore
gsave
546.918752 41.96 m
732.55 41.96 l
stroke
grestore
gsave
546.918752 171.42471 m
732.55 171.42471 l
stroke
grestore
1.000 setlinewidth
0 setlinecap
0.800 setgray
gsave
739.55 46.504855 m
851.378125 46.504855 l
852.711458 46.504855 853.378125 47.171522 853.378125 48.504855 c
853.378125 164.879855 l
853.378125 166.213188 852.711458 166.879855 851.378125 166.879855 c
739.55 166.879855 l
738.216667 166.879855 737.55 166.213188 737.55 164.879855 c
737.55 48.504855 l
737.55 47.171522 738.216667 46.504855 739.55 46.504855 c
cl
gsave
1.000 setgray
fill
grestore
stroke
grestore
1.500 setlinewidth
1 setlinejoin
2 setlinecap
[] 0 setdash
0.122 0.467 0.706 setrgbcolor
gsave
741.55 158.786105 m
761.55 158.786105 l
stroke
grestore
1.000 setlinewidth
0 setlinecap
gsave
/o {
gsave
newpath
translate
1.0 setlinewidth
1 setlinejoin
0 setlinecap
0 -3 m
0.795609 -3 1.55874 -2.683901 2.12132 -2.12132 c
2.683901 -1.55874 3 -0.795609 3 0 c
3 0.795609 2.683901 1.55874 2.12132 2.12132 c
1.55874 2.683901 0.795609 3 0 3 c
-0.795609 3 -1.55874 2.683901 -2.12132 2.12132 c
-2.683901 1.55874 -3 0.795609 -3 0 c
-3 -0.795609 -2.683901 -1.55874 -2.12132 -2.12132 c
-1.55874 -2.683901 -0.795609 -3 0 -3 c
cl

gsave
0.122 0.467 0.706 setrgbcolor
fill
grestore
stroke
grestore
} bind def
751.55 158.786 o
grestore
0.000 setgray
gsave
769.550000 155.286105 translate
0.000000 rotate
0.000000 0.000000 m /b glyphshow
6.347656 0.000000 m /r glyphshow
10.458984 0.000000 m /e glyphshow
16.611328 0.000000 m /a glyphshow
22.739258 0.000000 m /s glyphshow
27.949219 0.000000 m /t glyphshow
grestore
1.500 setlinewidth
2 setlinecap
1.000 0.498 0.055 setrgbcolor
gsave
741.55 144.11423 m
761.55 144.11423 l
stroke
grestore
1.000 setlinewidth
0 setlinecap
gsave
/o {
gsave
newpath
translate
1.0 setlinewidth
1 setlinejoin
0 setlinecap
0 -3 m
0.795609 -3 1.55874 -2.683901 2.12132 -2.12132 c
2.683901 -1.55874 3 -0.795609 3 0 c
3 0.795609 2.683901 1.55874 2.12132 2.12132 c
1.55874 2.683901 0.795609 3 0 3 c
-0.795609 3 -1.55874 2.683901 -2.12132 2.12132 c
-2.683901 1.55874 -3 0.795609 -3 0 c
-3 -0.795609 -2.683901 -1.55874 -2.12132 -2.12132 c
-1.55874 -2.683901 -0.795609 -3 0 -3 c
cl

gsave
1.000 0.498 0.055 setrgbcolor
fill
grestore
stroke
grestore
} bind def
751.55 144.114 o
grestore
0.000 setgray
gsave
769.550000 140.614230 translate
0.000000 rotate
0.000000 0.000000 m /f glyphshow
3.520508 0.000000 m /i glyphshow
6.298828 0.000000 m /s glyphshow
11.508789 0.000000 m /c glyphshow
17.006836 0.000000 m /h glyphshow
23.344727 0.000000 m /e glyphshow
29.497070 0.000000 m /r glyphshow
grestore
1.500 setlinewidth
2 setlinecap
0.173 0.627 0.173 setrgbcolor
gsave
741.55 129.442355 m
761.55 129.442355 l
stroke
grestore
1.000 setlinewidth
0 setlinecap
gsave
/o {
gsave
newpath
translate
1.0 setlinewidth
1 setlinejoin
0 setlinecap
0 -3 m
0.795609 -3 1.55874 -2.683901 2.12132 -2.12132 c
2.683901 -1.55874 3 -0.795609 3 0 c
3 0.795609 2.683901 1.55874 2.12132 2.12132 c
1.55874 2.683901 0.795609 3 0 3 c
-0.795609 3 -1.55874 2.683901 -2.12132 2.12132 c
-2.683901 1.55874 -3 0.795609 -3 0 c
-3 -0.795609 -2.683901 -1.55874 -2.12132 -2.12132 c
-1.55874 -2.683901 -0.795609 -3 0 -3 c
cl

gsave
0.173 0.627 0.173 setrgbcolor
fill
grestore
stroke
grestore
} bind def
751.55 129.442 o
grestore
0.000 setgray
gsave
769.550000 125.942355 translate
0.000000 rotate
0.000000 0.000000 m /c glyphshow
5.498047 0.000000 m /r glyphshow
9.609375 0.000000 m /y glyphshow
15.527344 0.000000 m /o glyphshow
grestore
1.500 setlinewidth
2 setlinecap
0.839 0.153 0.157 setrgbcolor
gsave
741.55 114.77048 m
761.55 114.77048 l
stroke
grestore
1.000 setlinewidth
0 setlinecap
gsave
/o {
gsave
newpath
translate
1.0 setlinewidth
1 setlinejoin
0 setlinecap
0 -3 m
0.795609 -3 1.55874 -2.683901 2.12132 -2.12132 c
2.683901 -1.55874 3 -0.795609 3 0 c
3 0.795609 2.683901 1.55874 2.12132 2.12132 c
1.55874 2.683901 0.795609 3 0 3 c
-0.795609 3 -1.55874 2.683901 -2.12132 2.12132 c
-2.683901 1.55874 -3 0.795609 -3 0 c
-3 -0.795609 -2.683901 -1.55874 -2.12132 -2.12132 c
-1.55874 -2.683901 -0.795609 -3 0 -3 c
cl

gsave
0.839 0.153 0.157 setrgbcolor
fill
grestore
stroke
grestore
} bind def
751.55 114.77 o
grestore
0.000 setgray
gsave
769.550000 111.270480 translate
0.000000 rotate
0.000000 0.000000 m /p glyphshow
6.347656 0.000000 m /a glyphshow
12.475586 0.000000 m /r glyphshow
16.586914 0.000000 m /k glyphshow
22.377930 0.000000 m /i glyphshow
25.156250 0.000000 m /n glyphshow
31.494141 0.000000 m /s glyphshow
36.704102 0.000000 m /o glyphshow
42.822266 0.000000 m /n glyphshow
49.160156 0.000000 m /s glyphshow
grestore
1.500 setlinewidth
[5.55 2.4] 0 setdash
0.580 0.404 0.741 setrgbcolor
gsave
741.55 100.098605 m
761.55 100.098605 l
stroke
grestore
0.000 setgray
gsave
769.550000 96.598605 translate
0.000000 rotate
0.000000 0.000000 m /A glyphshow
6.840820 0.000000 m /N glyphshow
14.321289 0.000000 m /N glyphshow
21.801758 0.000000 m /hyphen glyphshow
25.410156 0.000000 m /b glyphshow
31.757812 0.000000 m /r glyphshow
35.869141 0.000000 m /e glyphshow
42.021484 0.000000 m /a glyphshow
48.149414 0.000000 m /s glyphshow
53.359375 0.000000 m /t glyphshow
grestore
0.549 0.337 0.294 setrgbcolor
gsave
741.55 85.42673 m
761.55 85.42673 l
stroke
grestore
0.000 setgray
gsave
769.550000 81.926730 translate
0.000000 rotate
0.000000 0.000000 m /A glyphshow
6.840820 0.000000 m /N glyphshow
14.321289 0.000000 m /N glyphshow
21.801758 0.000000 m /hyphen glyphshow
25.410156 0.000000 m /f glyphshow
28.930664 0.000000 m /i glyphshow
31.708984 0.000000 m /s glyphshow
36.918945 0.000000 m /c glyphshow
42.416992 0.000000 m /h glyphshow
48.754883 0.000000 m /e glyphshow
54.907227 0.000000 m /r glyphshow
grestore
0.890 0.467 0.761 setrgbcolor
gsave
741.55 70.754855 m
761.55 70.754855 l
stroke
grestore
0.000 setgray
gsave
769.550000 67.254855 translate
0.000000 rotate
0.000000 0.000000 m /A glyphshow
6.840820 0.000000 m /N glyphshow
14.321289 0.000000 m /N glyphshow
21.801758 0.000000 m /hyphen glyphshow
25.410156 0.000000 m /c glyphshow
30.908203 0.000000 m /r glyphshow
35.019531 0.000000 m /y glyphshow
40.937500 0.000000 m /o glyphshow
grestore
0.498 setgray
gsave
741.55 56.08298 m
761.55 56.08298 l
stroke
grestore
0.000 setgray
gsave
769.550000 52.582980 translate
0.000000 rotate
0.000000 0.000000 m /A glyphshow
6.840820 0.000000 m /N glyphshow
14.321289 0.000000 m /N glyphshow
21.801758 0.000000 m /hyphen glyphshow
25.410156 0.000000 m /p glyphshow
31.757812 0.000000 m /a glyphshow
37.885742 0.000000 m /r glyphshow
41.997070 0.000000 m /k glyphshow
47.788086 0.000000 m /i glyphshow
50.566406 0.000000 m /n glyphshow
56.904297 0.000000 m /s glyphshow
62.114258 0.000000 m /o glyphshow
68.232422 0.000000 m /n glyphshow
74.570312 0.000000 m /s glyphshow
grestore

end
showpage
